<svg xmlns="http://www.w3.org/2000/svg" viewBox="0 0 17.5 11.5">
  <title>depot</title>
  <g id="Layer_2" data-name="Layer 2">
    <g id="Layer_1-2" data-name="Layer 1">
      <path d="M8.75,0,0,3.58V11.5H7.42V4.42H15.5V11.5h2V3.58ZM5.44,8H2V5.75H5.44Z" fill="#3f3f3f"/>
    </g>
  </g>
</svg>
