<?xml version="1.0" standalone="no"?>
<!DOCTYPE svg PUBLIC "-//W3C//DTD SVG 20010904//EN"
 "http://www.w3.org/TR/2001/REC-SVG-20010904/DTD/svg10.dtd">
<svg version="1.0" xmlns="http://www.w3.org/2000/svg"
 width="169.000000pt" height="180.000000pt" viewBox="0 0 169.000000 180.000000"
 preserveAspectRatio="xMidYMid meet">
<metadata>
Created by potrace 1.14, written by Peter Selinger 2001-2017
</metadata>
<g transform="translate(0.000000,180.000000) scale(0.100000,-0.100000)"
fill="#000000" stroke="none">
<path d="M729 1724 c-218 -197 -288 -266 -304 -300 -16 -33 -17 -55 -11 -188
4 -83 13 -209 19 -281 l12 -129 40 -8 c81 -17 83 -15 87 129 2 99 7 134 20
153 10 14 29 70 43 125 15 55 37 132 51 172 25 74 31 137 14 148 -18 11 -47
-32 -70 -101 -25 -76 -50 -110 -74 -101 -23 9 -20 72 5 125 14 29 43 60 83 91
130 99 186 162 186 210 0 38 -18 30 -101 -45z"/>
<path d="M874 1786 c-17 -45 46 -124 181 -227 39 -30 68 -61 83 -91 26 -54 29
-116 6 -125 -24 -9 -49 25 -74 101 -21 65 -48 106 -70 106 -16 0 -12 -87 6
-128 8 -20 31 -95 50 -167 19 -71 42 -141 52 -155 12 -19 17 -56 20 -152 4
-103 7 -128 20 -133 22 -8 103 6 107 19 3 13 22 260 31 408 11 187 9 191 -212
390 -189 170 -193 173 -200 154z"/>
<path d="M823 1590 c-29 -12 -40 -55 -24 -94 26 -62 25 -73 -6 -92 -53 -33
-53 -34 -53 -245 l0 -197 25 -6 c22 -6 24 -11 27 -74 l3 -67 55 0 55 0 5 70
c3 46 9 70 18 71 6 1 17 2 22 3 6 1 10 73 10 195 0 179 -1 195 -20 219 -11 14
-29 29 -39 32 -29 9 -32 32 -10 74 23 45 18 84 -14 106 -24 17 -24 17 -54 5z"/>
<path d="M91 1515 c-32 -76 -31 -199 2 -262 13 -24 13 -24 45 24 18 26 41 59
52 73 11 14 27 42 35 64 l16 38 -32 -23 c-18 -12 -45 -44 -62 -71 -16 -26 -32
-48 -35 -48 -3 0 -3 26 0 58 3 31 2 84 -1 117 -7 59 -7 60 -20 30z"/>
<path d="M1585 1486 c-4 -26 -5 -77 -2 -112 5 -67 -6 -84 -24 -36 -10 27 -86
112 -101 112 -13 0 24 -73 67 -130 23 -30 46 -64 52 -74 10 -19 11 -19 21 0
33 63 37 191 8 259 l-13 30 -8 -49z"/>
<path d="M191 1086 c-14 -57 -14 -108 1 -141 15 -34 0 -46 -20 -15 -28 42
-126 142 -130 132 -5 -16 34 -87 70 -127 26 -31 75 -65 92 -65 13 0 27 119 21
174 -9 85 -20 98 -34 42z"/>
<path d="M1475 1076 c-7 -56 -1 -193 9 -203 16 -17 121 76 149 132 37 76 26
74 -49 -8 -74 -80 -108 -102 -83 -55 13 25 7 145 -9 173 -8 16 -11 9 -17 -39z"/>
<path d="M266 893 c6 -58 21 -110 41 -142 10 -15 12 -26 5 -33 -7 -7 -25 3
-54 29 -23 22 -59 50 -78 63 -19 13 -50 37 -68 54 l-34 31 16 -39 c37 -90 96
-136 204 -161 l52 -12 -4 31 c-3 17 -8 51 -11 76 -5 39 -57 150 -70 150 -3 0
-2 -21 1 -47z"/>
<path d="M1393 885 c-20 -40 -34 -84 -40 -131 l-9 -70 51 12 c97 23 142 52
186 122 43 68 36 80 -18 33 -113 -97 -178 -143 -181 -127 -2 8 3 27 11 43 19
36 40 133 36 158 -3 14 -13 2 -36 -40z"/>
<path d="M385 748 c17 -47 35 -74 70 -106 52 -46 54 -59 9 -42 -16 6 -71 20
-122 31 -51 10 -103 24 -115 30 -21 11 -21 11 2 -15 39 -42 118 -76 175 -76
48 0 122 13 132 23 6 6 -69 115 -108 157 -63 67 -68 67 -43 -2z"/>
<path d="M1269 751 c-30 -32 -68 -81 -85 -109 l-31 -50 43 -11 c100 -25 207 0
264 64 23 26 23 27 3 16 -12 -6 -55 -18 -95 -26 -40 -9 -95 -23 -121 -31 -55
-18 -74 -10 -37 15 54 36 72 59 95 124 14 37 23 67 21 67 -1 0 -27 -27 -57
-59z"/>
<path d="M580 551 c-25 -5 -76 -18 -114 -30 -37 -11 -78 -22 -90 -22 -16 -1
-14 -3 9 -9 52 -13 158 -11 215 5 120 33 202 49 208 39 9 -11 82 -12 82 0 0
12 80 -2 148 -25 69 -24 182 -35 248 -24 l49 8 -50 13 c-27 7 -75 21 -105 30
-52 15 -211 23 -315 16 -22 -2 -85 -1 -140 2 -55 3 -120 1 -145 -3z"/>
<path d="M1100 292 c-40 -21 -80 -90 -80 -137 0 -49 40 -118 80 -137 75 -38
174 -7 198 61 13 36 8 41 -34 41 -25 0 -38 -7 -50 -25 -20 -30 -63 -34 -87 -7
-22 24 -22 100 -1 130 19 28 59 29 81 2 22 -25 93 -29 93 -5 0 27 -33 67 -67
81 -45 19 -92 17 -133 -4z"/>
<path d="M40 195 c0 -119 12 -155 60 -180 68 -35 178 -7 200 51 6 14 10 72 10
130 l0 104 -42 0 -43 0 3 -87 c3 -106 -9 -138 -53 -138 -44 0 -56 32 -53 138
l3 87 -42 0 -43 0 0 -105z"/>
<path d="M371 155 l2 -145 43 0 44 0 0 78 c1 88 5 87 62 -20 30 -57 32 -58 74
-58 l44 0 0 145 0 145 -40 0 -40 0 0 -75 c0 -41 -3 -75 -7 -75 -5 0 -26 34
-48 75 l-40 75 -48 0 -48 0 2 -145z"/>
<path d="M708 155 l-3 -145 42 0 42 0 3 58 3 57 45 0 45 0 3 -58 3 -57 42 0
42 0 0 145 0 145 -42 0 -42 0 -3 -52 -3 -53 -45 0 -45 0 -3 53 -3 52 -39 0
-39 0 -3 -145z"/>
<path d="M1355 155 l0 -145 43 0 42 0 0 50 0 50 40 0 c44 0 60 -18 60 -69 0
-30 2 -31 44 -31 l44 0 -5 43 c-3 23 -13 54 -23 68 -18 25 -18 26 1 42 30 26
26 90 -7 116 -23 18 -41 21 -133 21 l-106 0 0 -145z"/>
</g>
</svg>
