<?xml version="1.0" encoding="UTF-8" standalone="no"?>
<svg width="43px" height="52px" viewBox="0 0 43 52" version="1.1" xmlns="http://www.w3.org/2000/svg" xmlns:xlink="http://www.w3.org/1999/xlink">
    <!-- Generator: Sketch 3.7.1 (28215) - http://www.bohemiancoding.com/sketch -->
    <title>wfp</title>
    <desc>Created with Sketch.</desc>
    <defs></defs>
    <g id="Welcome" stroke="none" stroke-width="1" fill="none" fill-rule="evenodd">
        <g id="Productivity-Overview" transform="translate(-1651.000000, -474.000000)" fill="#0078B0">
            <g id="team" transform="translate(1632.000000, 37.000000)">
                <g id="pciture-copy-7" transform="translate(0.000000, 423.000000)">
                    <g id="wfp" transform="translate(19.000000, 14.000000)">
                        <path d="M24.5675667,12.8656291 C24.7964749,12.3702322 25.0083501,11.9760416 25.3138614,11.5060589 C25.448773,11.2989601 25.6009879,11.1544957 25.7368007,10.9449636 C25.6719133,10.9262184 25.5770156,10.9799307 25.5361906,11.0089497 C25.4003778,11.1074523 25.3390953,11.2674177 25.230409,11.3530329 C24.9737435,11.5556256 24.9808631,11.7391127 24.846312,11.83374 C24.7260901,11.9185442 24.6915737,11.9743293 24.6074003,12.106357 C24.5511646,12.1946759 24.5096187,12.2661421 24.4500485,12.4398059 C24.4292305,12.5026205 24.3871438,12.4471057 24.2868388,12.5850815 C24.1554419,12.764513 24.0965026,12.9580035 24.0419792,13.175286 C24.0244957,13.246662 23.9031023,13.2843328 23.8250572,13.4325823 C23.7206066,13.6324714 23.6524749,13.8174905 23.607234,14.1086724 C23.5959688,14.1762634 23.4817851,14.2231265 23.4030191,14.4110295 C23.347234,14.5435078 23.3073102,14.572617 23.2584645,14.8219827 C23.2284541,14.9740173 23.1591508,14.9959168 23.0811057,15.2164437 C23.0207244,15.3847903 23.0184714,15.5469185 22.9972929,15.7668146 C22.9924263,15.8094419 22.9204194,15.8939757 22.8538198,16.0172617 C22.7425199,16.2233692 22.7461248,16.3608943 22.701695,16.5736707 C22.6847522,16.6505442 22.5985061,16.7523813 22.5155043,17.0820451 C22.4427764,17.3743986 22.5095563,17.5683397 22.4848631,17.7124437 C22.4203362,18.0866274 22.3560797,18.4115147 22.3907764,18.7800208 C22.4078995,18.9601733 22.4354766,19.1460936 22.4234905,19.3192166 C22.3890641,19.8628284 22.3597747,20.3103709 22.3626586,20.9260797 C22.3646412,21.2614211 22.3907764,21.720409 22.4415147,22.1024333 C22.4972097,22.5244714 22.577688,22.8536846 22.577688,22.8536846 L23.9523986,22.8536846 C23.9523986,22.8536846 23.8986863,22.0588146 23.9699723,21.2220381 C24.0120589,20.7204229 24.1314697,20.1887071 24.2398856,19.8153345 C24.3772305,19.3390433 24.4626655,19.0924714 24.7224853,18.4640555 C24.7278024,18.4502669 24.7205026,18.3914177 24.6519203,18.4489151 C24.5085373,18.5694073 24.3888562,18.6753899 24.2755737,18.8457192 C24.1025407,19.1066205 23.9971889,19.3213795 23.8571404,19.58913 C23.6932998,19.9004991 23.6030884,20.1716742 23.4343813,20.5500936 C23.4241075,20.277026 23.4687175,20.0172062 23.5238718,19.7657678 C23.5808284,19.5088319 23.6258891,19.3054281 23.7064575,19.0841802 C23.8498406,18.6934142 23.9888076,18.3675355 24.2185269,18.0041664 C24.3517262,17.7941837 24.5217851,17.6059203 24.6946378,17.4491993 C24.9011057,17.2605754 25.0921629,17.0945719 25.308364,16.9095529 C25.0812582,16.7924853 24.7786308,17.0369844 24.7180693,17.0495113 C24.398409,17.1117851 24.268364,17.4082842 24.170312,17.4487487 C24.0305338,17.5074177 23.9495147,17.5930329 23.8522738,17.7110017 C23.7776534,17.7996811 23.7552132,17.9365754 23.6768076,17.9851508 C23.5464922,18.0664402 23.4506932,18.1890953 23.3609324,18.3602357 C23.324253,18.4308908 23.223948,18.7650607 23.1122877,18.7221629 C23.3029844,17.5891577 23.7029428,16.5265373 24.3450572,15.5808042 C24.7521352,14.981227 25.1949012,14.4669047 25.8475598,14.0054835 C25.9334454,13.9446516 25.9502981,13.9160832 25.8302565,13.9203189 C25.2202253,13.9943986 25.1829151,14.2729636 25.0825199,14.2991889 C24.9872617,14.3239723 24.869383,14.4368943 24.7939515,14.5101629 C24.658409,14.6442634 24.660662,14.7571854 24.608662,14.792513 C24.4972721,14.8701075 24.4135494,14.950766 24.337487,15.0855875 C24.2977435,15.1558821 24.2303328,15.3107106 24.1709428,15.345948 C24.014312,15.4367002 23.8625477,15.5689983 23.787026,15.7116603 C23.7310607,15.8160208 23.7089809,15.9292132 23.6359827,16.0317712 C23.5578475,16.1418995 23.4488007,16.2244506 23.3549844,16.3040277 C23.4262704,15.8198059 23.6542773,15.2461837 23.8114489,14.7513276 C24.022513,14.0903778 24.2787279,13.4898094 24.5675667,12.8656291 L24.5675667,12.8656291 Z" id="Fill-1"></path>
                        <path d="M25.971044,16.790043 C26.4914045,15.6217102 27.0389816,14.7425768 27.7505795,13.7142024 C27.8434045,13.5795612 27.9268568,13.4475334 28.0081463,13.3211834 C28.0446454,13.2643168 28.2195709,13.0127882 28.2559799,12.9595265 C28.494531,12.5993116 28.5947459,12.4890932 28.8389747,12.1448298 C28.9051237,12.051374 28.9586558,11.977835 28.9869539,11.8696894 C29.0389539,11.6681782 28.8660111,11.5330863 28.8261775,11.3397761 C28.7858932,11.1424104 28.807973,10.9269303 28.8984548,10.7603861 C28.9553213,10.6560256 29.0117373,10.6152007 29.0689643,10.4753324 C29.1799036,10.2057795 29.141512,9.62287487 29.2677719,9.60755425 C29.235869,9.88422669 29.2285692,10.1953255 29.2719175,10.4608229 C29.3224756,10.7703896 29.5103785,10.9580222 29.587973,11.286244 C29.7970544,11.2483931 30.0239799,11.2574052 30.1999868,11.2725456 C30.3744617,11.2874156 30.595349,11.2390205 30.77433,11.177738 C31.0169366,11.0949165 31.218538,10.9438731 31.4658308,10.8852943 C31.2554877,11.0876166 30.958538,11.1634087 30.7096229,11.3169754 C30.6181497,11.3744728 30.5320839,11.4502648 30.4709816,11.5448021 C30.3708568,11.7002614 30.2919106,11.849322 30.13546,11.917634 C29.8574357,12.038757 29.6187945,11.9813497 29.3015674,12.0402891 C28.8303231,12.5258627 28.3866558,13.1860915 27.9773248,13.8805664 C26.9393976,15.6363099 26.0739626,17.4547778 25.5708153,19.3196582 C25.7448395,18.9951314 25.9110232,18.6813289 26.0994669,18.3726634 C26.3076471,18.0297518 26.5418724,17.69414 26.7971861,17.3578073 C27.3946905,16.570147 27.9857962,15.8826114 28.6481879,15.1589373 C29.1827875,14.5742302 29.7686662,14.0838801 30.4220458,13.6736478 C31.2853179,13.1327397 32.3505518,12.7536894 33.2864617,12.9491626 C33.392895,12.9739459 33.5451099,13.0024243 33.6115293,13.0724485 C32.4386905,12.9081574 31.3878759,13.3180291 30.6039106,13.9459945 C29.9844166,14.4413012 29.4623438,14.9442683 28.9318898,15.5974676 C28.6578308,15.9123515 28.4112589,16.2584173 28.1664894,16.5935785 C27.9101844,16.9462232 27.6826281,17.3172527 27.4571445,17.6882821 C26.6971515,18.9434919 26.121817,20.272601 25.6987875,21.6494745 C25.6866211,21.6930932 25.6838274,21.7370724 25.6719314,21.7803307 C25.6919383,21.7495092 25.7215882,21.7158038 25.7415951,21.6843515 C26.3109816,20.7585352 26.9959036,19.8648922 27.8631411,19.2653151 C27.938843,19.2137657 28.0178794,19.1143619 28.0381567,19.0360464 C28.1320631,18.6685317 27.8518759,18.4918038 28.2393976,17.9836097 C28.3283473,17.8669927 28.4498308,17.8244555 28.5338239,17.7158593 C28.6924374,17.4707293 28.8218516,17.031478 28.9547806,16.9134191 C28.8879106,17.1994641 28.7239799,17.5015508 28.6889227,17.7963376 C28.6517026,18.119783 28.734434,18.3843792 28.7489435,18.7272908 C28.9780319,18.7585629 29.1552104,18.8555334 29.3350024,18.9109581 C29.6144686,18.9981955 29.7823646,18.9761158 30.058947,18.9521435 C30.1769158,18.94214 30.3909539,18.8731071 30.5181151,18.8991522 C30.2508153,19.0452388 29.8898794,19.0183827 29.6163612,19.1578905 C29.4250336,19.2559425 29.3696991,19.4007674 29.1057338,19.4515958 C28.8708776,19.4973775 28.6731515,19.4727744 28.5205761,19.3943688 C28.4017962,19.3345282 28.3090614,19.3096548 28.2024478,19.3604832 C27.9178447,19.4973775 27.7233629,19.6903272 27.4943646,19.9213983 C26.9622884,20.456809 26.528174,21.0543133 26.1228984,21.8378281 C26.0156541,22.0462787 25.9192243,22.2521158 25.8277511,22.4644416 C25.7826905,22.567991 25.6704894,22.854757 25.6704894,22.854757 L24.2804582,22.854757 C24.2804582,22.854757 24.2769435,22.4540776 24.289921,22.3075404 C24.3165969,22.0159078 24.3561601,21.7997969 24.4128464,21.5039286 C24.4934149,21.0781955 24.5723612,20.6920256 24.6828499,20.2790898 C24.7903646,19.8774191 24.9063508,19.5004416 25.0440562,19.1146322 C25.3313629,18.3102995 25.6368742,17.5400326 25.971044,16.790043" id="Fill-3"></path>
                        <path d="M12.5298551,27.6180652 C13.0373282,27.2031466 13.4129539,26.9628832 13.9196159,26.6607965 C14.1252728,26.5378711 14.4365518,26.3987237 14.6758239,26.2902177 C15.5537858,25.8933234 16.7151792,25.60106 17.8093421,25.5809629 C17.8292589,25.5809629 17.8279071,25.581774 17.8279071,25.581774 L25.9860492,25.581774 C25.9860492,25.581774 25.9556783,25.5809629 26.0146177,25.5809629 C26.2742572,25.5809629 26.5309227,25.6712645 26.6899868,25.8210461 C26.8492312,25.9721795 26.9252936,26.2049629 26.9669296,26.4363945 C27.0020769,26.6335799 26.9848638,26.8090461 26.9389019,27.0200201 C26.9029435,27.1865643 26.8760873,27.285878 26.7832624,27.4276388 C26.7271168,27.5137948 26.6738551,27.572644 26.5695847,27.6560062 C26.4624305,27.7415314 26.310486,27.7713615 26.1364617,27.7729837 C26.1182572,27.7737047 26.0793248,27.7747861 26.0806766,27.7743355 C26.0825692,27.7729837 16.5383612,27.7729837 16.5383612,27.7729837 C16.5383612,27.7729837 16.4789712,27.7728035 16.4491411,27.7728035 C15.8245102,27.7706406 15.1668049,27.8024534 14.5494738,27.8832021 C14.0766073,27.9477289 13.6027494,28.0213581 13.1457442,28.1404984 C12.5693282,28.291001 12.0144513,28.4992714 11.4603854,28.7057393 C11.7675189,28.2977601 12.1220562,27.9512437 12.5298551,27.6180652" id="Fill-5"></path>
                        <path d="M15.3626925,24.3722017 C15.8639473,24.0101844 16.4724464,23.7131445 17.0115522,23.5066766 C17.2850704,23.4031272 17.6484395,23.2884028 17.9371882,23.2163958 C18.2860478,23.1284374 18.6867272,23.0625588 19.0135972,23.0529158 C19.1120998,23.0502121 19.0281068,23.0522849 19.0281068,23.0522849 L26.0253061,23.051564 C26.0253061,23.051564 26.1752679,23.0595847 26.2272679,23.0695882 C26.3587549,23.0978863 26.4648277,23.1516887 26.5088069,23.1798066 C26.6174932,23.2492901 26.7539369,23.3958274 26.8252229,23.5115432 C27.0069075,23.810836 27.0389906,24.1337407 26.9801414,24.4696229 C26.913001,24.8533594 26.6213685,25.290538 26.225826,25.3013525 C26.1567931,25.3030648 26.0194482,25.3013525 26.0194482,25.3013525 L18.440696,25.3013525 C18.440696,25.3013525 17.9996423,25.3098239 17.798131,25.3171237 C17.4254794,25.3318135 17.012183,25.3743508 16.6866648,25.4222052 C16.4083702,25.4623092 16.1363841,25.5150302 15.8576388,25.5894704 C14.9233511,25.8421705 14.1114482,26.3159383 13.2623251,26.6843542 C13.8341449,25.6846385 14.6078364,24.9190579 15.3626925,24.3722017" id="Fill-7"></path>
                        <path d="M11.4483092,29.1280388 C12.6647667,28.4093213 14.1301393,28.1258898 15.4713248,28.0810094 C15.5032277,28.0793872 15.5667633,28.0774946 15.5667633,28.0774946 L26.0271445,28.0783958 C26.0271445,28.0783958 26.04607,28.0783958 26.1406974,28.0774946 C26.7746107,28.0768638 27.0062225,28.7057303 27.0034288,29.2146454 C27.0020769,29.3818205 26.9736887,29.553051 26.9272763,29.6677754 C26.8670752,29.8176471 26.8003854,29.9400319 26.6914288,30.0579106 C26.6524964,30.1008984 26.5123577,30.1994912 26.4504444,30.2147217 C26.3054392,30.2500492 26.1271792,30.2460839 26.1282607,30.2460839 C26.1297026,30.2460839 18.3477269,30.2475258 18.3477269,30.2460839 C18.3477269,30.2460839 17.9277615,30.2293213 17.6364894,30.2010232 C17.426687,30.1803854 17.2673525,30.1583958 17.049349,30.11694 C16.5135778,30.0105969 16.0693698,29.8360319 15.6054253,29.6930094 C15.2958586,29.5973906 14.9702503,29.5261047 14.6307633,29.4748256 C14.0061324,29.3790267 13.3240042,29.3356783 12.6933352,29.3833525 C11.8911653,29.4430128 11.1776749,29.6001844 10.4145276,29.8423404 C10.5435813,29.6410995 11.0799834,29.3459522 11.4483092,29.1280388" id="Fill-9"></path>
                        <path d="M17.0826579,32.4079591 C16.7249664,32.2818794 16.3761969,32.1193005 16.0631154,31.9125622 C15.6554066,31.642739 15.4556076,31.4281601 14.9287584,31.1848326 C14.4777913,30.9762919 14.1177567,30.7708153 13.4889802,30.5430787 C13.1856319,30.4330406 12.6942003,30.281817 12.2727029,30.2094496 C11.6706925,30.1073421 11.0902211,30.0626419 11.0902211,30.0626419 C11.0902211,30.0626419 11.2131466,29.9859487 11.2872263,29.9630579 C11.9016735,29.7762364 12.4443841,29.6846731 13.0754135,29.6381705 C13.6288485,29.5967147 14.1371328,29.6507875 14.6920097,29.7372139 C14.919566,29.7733525 15.2154343,29.8431965 15.4725504,29.9168256 C16.3075244,30.1542953 17.2568624,30.5312728 18.0988659,30.5326246 C18.1459092,30.5326246 18.1405019,30.5318135 18.1405019,30.5318135 L25.9165296,30.5318135 L25.9403217,30.5318135 C26.1757185,30.5312728 26.6160513,30.6074253 26.7928693,30.9198759 C26.9978953,31.2800007 27.0614308,31.708888 26.8893893,32.1384062 C26.837209,32.2675501 26.7506925,32.4522988 26.6263251,32.5644998 C26.5172783,32.6630925 26.3398295,32.726538 26.2372714,32.726538 C26.2076215,32.7279799 26.1567931,32.726538 26.1567931,32.726538 L19.3563286,32.726538 L19.3192887,32.726538 C18.6240929,32.726538 17.7486544,32.6424548 17.0826579,32.4079591" id="Fill-11"></path>
                        <path d="M20.1803979,34.8202003 C19.9879889,34.6226544 19.722852,34.3199369 19.4824083,34.0328104 C19.0208971,33.4822593 18.8142489,32.9866821 18.8142489,32.9866821 L23.3499646,32.9866821 C23.3499646,32.9866821 23.3622211,33.5100166 23.2572298,34.1159023 C23.1591778,34.6787099 22.9513581,35.2718884 22.7303806,35.7014967 C22.7222697,36.1421899 22.9083702,36.5517012 22.9388312,36.9868971 C22.5663598,37.215625 22.1655002,37.4421899 21.8315106,37.7632021 C21.8104222,37.7826683 21.7759057,37.7826683 21.7617567,37.7297671 C21.5828659,37.0590842 21.4885088,36.4608589 21.3419716,35.7979265 C20.9284049,35.4782662 20.5406128,35.1934828 20.1803979,34.8202003" id="Fill-13"></path>
                        <path d="M24.8549095,34.4481886 C24.7265768,34.2110794 24.6308679,33.8982683 24.4836097,33.7122579 C24.4520672,33.8782614 24.4909997,33.9804589 24.4684693,34.1390724 C24.4477414,34.2722718 24.3386045,34.2170274 24.3165248,34.1543029 C24.2529893,33.9741504 24.1853983,33.7520915 24.12727,33.5676132 C24.0305698,33.2600291 23.9995681,32.9877726 23.9995681,32.9877726 L24.7541539,32.9866912 C24.7541539,32.9866912 24.7829927,32.9938107 24.7965109,33.06753 C24.8325594,33.2575958 24.8235473,33.4432458 24.8757276,33.6635023 C24.9425976,33.9472042 25.0289338,34.2062128 25.133114,34.4708991 C25.2238662,34.7036825 25.3408437,34.9386288 25.4358315,35.1700603 C25.448809,35.2004312 25.4550274,35.2586496 25.4321366,35.2890205 C25.4041088,35.3244381 25.3560742,35.3199321 25.3283168,35.2890205 C25.112296,35.04353 25.0251487,34.7654156 24.8549095,34.4481886" id="Fill-15"></path>
                        <path d="M26.0228818,34.9874205 C25.894549,34.7140825 25.7141262,34.4064083 25.7298073,34.0962107 C25.8132596,34.2055279 25.8475958,34.2843841 25.9624104,34.3454863 C26.0149511,34.3621588 26.1252596,34.3465678 26.0975023,34.2547341 C26.0468541,34.083774 25.9679979,33.938949 25.8950898,33.7046336 C25.7868541,33.3577567 25.6815924,32.9872679 25.6815924,32.9872679 L24.9113255,32.9867272 C24.9113255,32.9867272 24.954043,33.2992679 25.1291487,33.7787133 C25.2829858,34.2036354 25.5206357,34.6895695 25.7807258,35.1450426 C25.9927813,35.5198572 26.1852804,35.8466371 26.4257241,36.1203355 C26.508095,36.2145123 26.7099667,36.1317809 26.6226392,36.0092159 C26.394452,35.6867619 26.1814953,35.3292506 26.0228818,34.9874205" id="Fill-17"></path>
                        <path d="M31.0240832,8.95494073 C30.8569081,9.02775875 30.7092894,9.12202565 30.6258371,9.28262184 C30.5650953,9.39797712 30.5241802,9.57398406 30.6403466,9.67302738 C30.8436603,9.84651092 31.0862669,9.6688818 31.1844991,9.49152305 C31.3086863,9.26567903 31.2764229,8.83372756 31.2764229,8.83372756 C31.2764229,8.83372756 31.1319584,8.90888873 31.0240832,8.95494073" id="Fill-19"></path>
                        <path d="M31.2008111,10.0332333 C31.2738995,9.89543778 31.4340451,9.74637712 31.6094211,9.6397636 C31.807688,9.51855043 32.0132548,9.40076187 32.1561872,9.31559723 C32.2989393,9.22971161 32.3262461,9.16942045 32.3262461,9.16942045 C32.3262461,9.16942045 32.2085477,9.20997504 32.1440208,9.24800624 C31.7913761,9.45834939 31.4064679,9.69726101 31.2499272,9.76620381 C31.0523813,9.85244991 30.784,9.86912236 30.541844,9.89994385 C30.5033622,9.59479307 30.4239653,9.46799237 30.4250468,9.19672721 C30.4270295,9.06659203 30.4584818,8.89770468 30.4806516,8.78000624 C30.5564437,8.38797851 30.5712236,8.19025234 30.5712236,8.19025234 C30.5712236,8.19025234 30.511383,8.24594731 30.4894835,8.41843951 C30.4648804,8.57443951 30.4473969,8.63175667 30.4116187,8.81605477 C30.3708839,9.02874107 30.3283466,9.20898371 30.2011854,9.34191265 C30.0178787,9.53143778 29.8480901,9.86912236 29.9896707,10.1277705 C30.0722218,10.278904 30.2099272,10.2570045 30.2530953,10.2958468 C30.2962634,10.334599 30.3224887,10.4277844 30.4528943,10.4710426 C30.7345234,10.564949 31.0537331,10.3125192 31.2008111,10.0332333" id="Fill-21"></path>
                        <path d="M30.8358378,10.8395667 C30.9314565,10.6844679 31.0294184,10.5756014 31.1801012,10.4831369 C31.4300977,10.3308319 31.6154773,10.2275529 31.7679626,10.149688 C31.8340215,10.1165234 31.8891757,10.07687 31.9060284,10.0062149 C31.8378066,10.0318995 31.5797893,10.1532028 31.3235744,10.3054177 C31.1400873,10.4150052 30.8247529,10.5518094 30.6127875,10.5615425 C30.5288846,10.5652374 30.4666107,10.5445997 30.3981185,10.5423466 C30.255817,10.5365789 30.0748534,10.570825 30.0748534,10.570825 C30.0748534,10.570825 30.0289816,10.3699445 29.9681497,10.2252998 C29.9377789,10.1509497 29.8884825,10.0747972 29.8619868,9.93564991 C29.8442329,9.84264471 29.8390059,9.70322704 29.8463958,9.62013518 C29.8670336,9.36896707 29.9348049,9.1247383 29.9231792,8.87050607 C29.7651965,9.19845754 29.8297234,9.60238128 29.644434,9.85634315 C29.5662087,9.96295667 29.5043854,10.04713 29.4429227,10.1814107 C29.3410856,10.4021179 29.353252,10.6308458 29.4907771,10.8434419 C29.5700839,10.9647452 29.7451896,10.9602392 29.7753802,10.9837608 C29.8213421,11.0176464 29.860635,11.1445373 30.0317754,11.1825685 C30.3247598,11.248357 30.670375,11.1124541 30.8358378,10.8395667" id="Fill-23"></path>
                        <path d="M30.9175958,17.2538523 C30.9859078,17.1160568 31.0297969,16.9351834 31.1168541,16.8073913 C30.9201192,16.836861 30.8883965,16.8593012 30.6039737,16.8904832 C30.5418801,16.8963411 30.4136374,16.9608679 30.3712804,17.0031348 C30.2586288,17.1166877 30.1604867,17.2219494 30.2041955,17.412556 C30.2210482,17.4866357 30.2863861,17.541069 30.3227951,17.5524243 C30.5593636,17.6293879 30.799627,17.4886184 30.9175958,17.2538523" id="Fill-25"></path>
                        <path d="M31.1577692,17.6293879 C31.4264208,17.5665733 31.7369789,17.4347258 31.8617969,17.4762718 C31.6094572,17.6102821 31.2913289,17.6591279 31.0119529,17.7387951 C30.7988159,17.8001678 30.646601,17.9613047 30.4563549,18.1073913 C30.2815196,18.2403203 30.0492769,18.2944832 29.8416374,18.1967016 C29.7716132,18.1634468 29.7037518,18.0505248 29.6915854,17.9903237 C29.6806808,17.9421088 29.5804659,17.8939841 29.5290066,17.8517172 C29.4772769,17.8084589 29.4522232,17.7006738 29.4511418,17.6591279 C29.4422198,17.2871071 29.7252007,17.1367847 29.9979979,16.9182406 C30.2034745,16.753679 30.4700534,16.0554191 30.6328125,15.9105941 C30.6038835,16.1357172 30.3111695,16.5604589 30.1836478,16.8908437 C30.0825317,17.1541782 30.1156964,17.3646114 30.0503584,17.6419147 C30.2454711,17.6542614 30.4629338,17.6950863 30.6593081,17.6983307 C30.8133255,17.7004035 30.999426,17.6667882 31.1577692,17.6293879" id="Fill-27"></path>
                        <path d="M30.8747341,18.202938 C30.7236007,18.2310558 30.538852,18.2785497 30.4128624,18.3051355 C29.9746925,18.3979605 29.7651605,18.1832014 29.4153997,18.187347 C29.4460409,17.7865775 29.3069837,17.6071459 29.4214378,17.3480471 C29.5237255,17.1176971 29.618443,16.8735584 29.7060409,16.6781754 C29.7773269,16.5216347 29.7988659,16.3893366 29.7988659,16.3893366 C29.7988659,16.3893366 29.6927029,16.5483106 29.3905262,17.1368028 C29.2854447,17.3421893 29.0973615,17.3862586 28.930547,17.5801095 C28.7380478,17.8018981 28.6277393,18.2707993 28.9833581,18.4676243 C29.0541033,18.5062863 29.0438295,18.6284007 29.0951986,18.6775168 C29.3326683,18.9008374 29.8122038,18.8783972 30.1122177,18.6061407 C30.350949,18.3885879 30.6410496,18.3532603 30.8883425,18.2891841 C31.0328971,18.2518738 31.1596977,18.1904111 31.1596977,18.1904111 C31.1596977,18.1904111 31.0911154,18.1624735 30.8747341,18.202938" id="Fill-29"></path>
                        <path d="M22.09492,22.8543965 C22.07562,22.8543965 22.05502,22.8543965 22.09492,22.8543965 M20.0455584,17.0813151 C19.8993816,17.2746253 19.8317005,17.4966842 19.6704735,17.6653913 C19.5863002,17.7537102 19.4577872,17.7124347 19.3910974,17.6106877 C19.3170177,17.4956028 19.1973366,17.3328437 19.2862863,17.2192908 C19.4328236,17.031478 19.739236,16.9117068 19.9998669,16.9455023 C20.0152776,16.9473047 20.0992707,17.0093081 20.0455584,17.0813151 M19.3440541,18.1863827 C19.262314,18.4051972 19.0184458,18.428809 18.8109865,18.4721574 C18.7720541,18.4804485 18.6527334,18.4721574 18.5991113,18.4194364 C18.5095307,18.3317484 18.4319362,18.2119771 18.4476173,18.0620153 C18.4559085,17.9695508 18.5331425,17.8787986 18.6286711,17.8421192 C18.8019744,17.7747986 19.0073608,17.6667432 19.1781407,17.7626322 C19.3249484,17.8448229 19.4020922,18.0321851 19.3440541,18.1863827 M18.8949795,19.3428194 C18.835139,19.4291556 18.6818426,19.14266 18.6620159,19.0113532 C18.6046988,18.6314919 18.9376971,18.5343411 19.2151806,18.546147 C19.2238322,18.772712 19.0481858,19.1237345 18.8949795,19.3428194 M18.5951459,20.3681296 C18.5407127,20.5207951 18.5145775,20.6615646 18.4538357,20.8014329 C18.3948964,20.9369754 18.1433678,20.9851002 18.0036797,20.9417518 C17.8043314,20.8801088 17.6334614,20.4325664 17.8599362,20.2611556 C18.0333296,20.1315612 18.2128513,20.1108333 18.4336485,20.0837969 C18.473392,20.0790205 18.6216416,20.0879425 18.6274995,20.1018211 C18.6644492,20.1946461 18.6410177,20.2410586 18.5951459,20.3681296 M18.2597144,21.5496201 C18.21934,21.6670482 18.2014059,21.787991 18.1495861,21.900913 C18.1235411,21.9580499 18.0893851,21.8829789 18.0880333,21.8791036 C18.0097179,21.6843515 17.9603314,21.5194295 18.0271113,21.3480187 C18.0648721,21.2530308 18.1947369,21.1658835 18.3180229,21.1582232 C18.3104527,21.2801574 18.301801,21.4307501 18.2597144,21.5496201 M17.8635411,22.126036 C17.7735099,22.085121 17.7748617,21.9694052 17.737191,21.8974884 C17.7015931,21.8271938 17.6249899,21.7304035 17.6564423,21.6383896 C17.8302863,21.7357206 17.9108548,21.9095646 17.8635411,22.126036 M17.5637976,21.4065976 C17.3564284,21.2361782 17.3384943,20.9636513 17.2004284,20.7550205 C17.3528236,20.6574191 17.6100298,20.6770655 17.6890662,20.8701054 C17.7523314,21.0252042 17.7982031,21.2530308 17.6409414,21.3715404 C17.6238184,21.3840672 17.583444,21.4229095 17.5637976,21.4065976 M16.7909172,20.0006149 C16.7597352,19.9562752 16.6982724,19.8281227 16.7451355,19.8119009 C17.116165,19.6840187 17.3946399,19.6798731 17.4739466,20.0769477 C17.5300021,20.360199 17.3366017,20.6032562 17.0653366,20.5042128 C16.987652,20.4755542 16.9105081,20.1738281 16.7909172,20.0006149 M16.2512707,19.1042683 C16.2252256,19.0715542 16.2040471,18.9729615 16.2364908,18.9476374 C16.4294406,18.7925386 16.7126919,18.7807328 16.931957,18.8020915 C17.2212464,18.8284971 17.2806364,19.0973289 17.2324215,19.3203792 C17.1687057,19.6137241 16.7237768,19.6501331 16.5976971,19.6012873 C16.4738704,19.5537934 16.3875341,19.2732458 16.2512707,19.1042683 M16.3141754,18.0608437 C16.5640818,17.8988055 17.0420853,17.7785837 17.1217525,18.2175646 C17.1458149,18.3498627 17.1129206,18.5254191 16.9343002,18.5830066 C16.7507231,18.6417657 16.5344319,18.7052111 16.3668964,18.6373497 C16.1606087,18.5528159 16.1201442,18.1863827 16.3141754,18.0608437 M16.0550766,17.3224797 C16.073912,17.2383965 16.1671875,17.1984728 16.2456832,17.1784659 C16.4480055,17.1284485 16.6743002,17.0531071 16.8599501,17.1712562 C16.9324076,17.2171279 16.9379951,17.2819251 16.9474579,17.3729477 C16.9639501,17.5205664 16.9428617,17.6411487 16.8457109,17.6975646 C16.6486156,17.8132804 16.4480055,17.8236444 16.2189172,17.7785837 C16.0331771,17.7419043 16.0179466,17.4956028 16.0550766,17.3224797 M15.8477075,18.4606218 C15.674314,18.3324693 15.5978912,18.1513255 15.4700991,17.9718038 C15.4392776,17.9279147 15.4700991,17.9098905 15.4937109,17.9030412 C15.8012049,17.8160742 16.029392,17.9695508 15.9814475,18.3048922 C15.9729761,18.3697795 15.9306191,18.521634 15.8477075,18.4606218 M14.999035,17.4249477 C14.8837698,17.3251834 14.9638877,17.1519702 15.064373,17.1015023 C15.2401095,17.0141747 15.5163314,17.001017 15.6992776,17.06266 C15.8167958,17.1022232 15.8762759,17.2711106 15.8552776,17.4554087 C15.8463556,17.5310205 15.8234648,17.6141123 15.7863348,17.6386253 C15.6470974,17.7336132 15.4316173,17.7374884 15.2622794,17.7020707 C15.142418,17.6768367 15.0997005,17.5129061 14.999035,17.4249477 M14.8661061,16.3775577 C14.9775861,16.1350412 15.3840333,16.1329685 15.6054614,16.2410239 C15.785704,16.3297934 15.8084146,16.6654052 15.6114995,16.7977934 C15.4543279,16.9023341 15.2069449,16.8638523 15.0403106,16.8333012 C14.803652,16.7896825 14.7847265,16.5569893 14.8661061,16.3775577 M14.8752083,15.470036 C15.0440055,15.3093497 15.2628201,15.383069 15.4662239,15.4111868 C15.5056069,15.4167744 15.5525601,15.4443515 15.579236,15.4710274 C15.718113,15.6114364 15.7291078,15.8413359 15.5744596,15.9564208 C15.3959293,16.0889893 15.1733296,16.0028333 14.958931,15.9920187 C14.900983,15.9895854 14.8372672,15.921634 14.8241095,15.8781054 C14.7855376,15.7422925 14.7621061,15.5763792 14.8752083,15.470036 M14.9839847,14.710764 C15.163236,14.6359633 15.4712707,14.601627 15.5982516,14.8027778 C15.6762967,14.9261539 15.6535861,15.1545213 15.5284977,15.187686 C15.4060229,15.2191383 14.9895723,15.2885317 14.889808,15.0580915 C14.8404215,14.9448991 14.8613296,14.7623133 14.9839847,14.710764 M15.5357976,14.0657657 C15.5877075,14.0886565 15.620061,14.1302024 15.6322274,14.1940083 C15.657912,14.3322544 15.6214128,14.4822163 15.4889345,14.5063688 C15.2896763,14.5426877 14.9938981,14.5541331 14.9948894,14.272504 C14.9956104,13.9584312 15.3051771,13.9619459 15.5357976,14.0657657 M15.1347577,13.4818697 C15.2408305,13.4413151 15.4153054,13.4502371 15.5104735,13.4998939 C15.5585081,13.5248575 15.623035,13.6038038 15.5958184,13.6868957 C15.5620229,13.7953116 15.461087,13.8344243 15.3465428,13.8358662 C15.2364146,13.8368575 15.1100645,13.8282059 15.0655445,13.7381747 C15.0233678,13.6529199 15.0413019,13.5178281 15.1347577,13.4818697 M15.2585844,13.0106253 C15.3555549,12.9753879 15.4988478,12.9779113 15.5693227,13.0544243 C15.6662932,13.1604971 15.5897802,13.3287536 15.4067438,13.3203723 C15.3423071,13.3176686 15.2659744,13.2954988 15.2269518,13.2733289 C15.1324146,13.2199771 15.1636867,13.0446912 15.2585844,13.0106253 M15.694321,12.7072769 C15.7067577,12.6663619 15.7704735,12.6185976 15.8037282,12.6068818 C15.8762759,12.5809269 15.9616208,12.5756097 16.0311043,12.6034572 C16.1701615,12.6605941 16.1510558,12.8327258 16.002626,12.8929269 C15.9362066,12.9199633 15.834009,12.9373567 15.7839016,12.9199633 C15.6903556,12.8881504 15.6644007,12.8070412 15.694321,12.7072769 M16.1276243,13.3800326 C15.97586,13.4242821 15.7644354,13.4329338 15.7191043,13.2773844 C15.6422308,13.0135092 15.9753192,12.9739459 16.1480818,13.0293705 C16.2672222,13.0671314 16.3093088,13.3277622 16.1276243,13.3800326 M16.2280194,12.5085594 C16.2761442,12.3449893 16.4614336,12.2563099 16.6292395,12.3062371 C16.7736139,12.3485941 16.8068686,12.5451487 16.7094475,12.6407674 C16.6651979,12.6837553 16.5921997,12.7274641 16.5136139,12.7446773 C16.3418426,12.7831591 16.1732256,12.6885317 16.2280194,12.5085594 M16.9827854,13.1084069 C16.9555688,13.2151106 16.8772534,13.2884693 16.7518946,13.3162267 C16.627347,13.3436236 16.4552153,13.3512839 16.3862724,13.2743203 C16.3203938,13.2015023 16.290113,13.0991244 16.345087,13.0205386 C16.4552153,12.8639979 16.6569969,12.809114 16.8366988,12.8489477 C16.9392568,12.8728298 17.0145983,12.9779113 16.9827854,13.1084069 M16.9158253,12.4808922 C16.9827854,12.3324624 17.1528444,12.2577518 17.3160541,12.3075889 C17.3487681,12.318043 17.4160887,12.3706738 17.4254614,12.4225837 C17.4448374,12.5258627 17.4089692,12.6199494 17.3228132,12.6740222 C17.2125047,12.7442267 17.1212118,12.7838801 16.9945012,12.7318801 C16.899243,12.6921366 16.8759917,12.5684 16.9158253,12.4808922 M17.6189518,12.8975231 C17.6935723,13.023783 17.5801095,13.1505837 17.5224319,13.1853705 C17.3946399,13.2601712 17.2143071,13.3061331 17.1373435,13.1794225 C17.0615515,13.0551452 17.1242759,12.9076166 17.2563938,12.8528229 C17.3824735,12.8004624 17.5131494,12.7211556 17.6189518,12.8975231 M17.8310073,13.3800326 C17.9145497,13.4489754 17.9877282,13.5940707 17.8876936,13.708705 C17.7937872,13.8167605 17.6769899,13.8490239 17.5292811,13.8729962 C17.4294267,13.8897588 17.3018149,13.8160395 17.2855931,13.7277206 C17.2707231,13.6519286 17.2568444,13.513322 17.3321858,13.4496062 C17.4789934,13.3245179 17.6757282,13.2521504 17.8310073,13.3800326 M18.0080055,12.5569546 C18.0868617,12.5802059 18.1371494,12.6636582 18.0977664,12.7439563 C18.073704,12.7935231 18.0028686,12.8473255 17.9577179,12.8749026 C17.8339813,12.9511452 17.7277282,12.9199633 17.6890662,12.8289407 C17.6177802,12.6614953 17.8575029,12.5126149 18.0080055,12.5569546 M18.309912,12.9739459 C18.3967889,12.9816062 18.4367127,13.0422579 18.4538357,13.1087674 C18.476366,13.1978073 18.4469865,13.2802683 18.3717352,13.3307362 C18.2822447,13.3903064 18.1706745,13.4253636 18.0814544,13.4268055 C17.9608721,13.4288783 17.8491217,13.2518801 17.9145497,13.1367951 C17.9837629,13.0135092 18.1579674,12.9608783 18.309912,12.9739459 M18.8090038,13.6123653 C18.860373,13.7637692 18.7492534,13.8344243 18.632366,13.8966981 C18.5133158,13.9601435 18.353801,14.0193532 18.2711598,13.9404971 C18.1656277,13.840913 18.1185844,13.6736478 18.2362828,13.5634295 C18.3994925,13.4104936 18.7011286,13.2954988 18.8090038,13.6123653 M19.0244839,13.9924069 C19.2158114,14.0166496 19.2538426,14.2889061 19.2151806,14.3872284 C19.1714718,14.4718523 19.0751321,14.5380014 19.0244839,14.5638662 C18.8839847,14.6362336 18.7200541,14.6636305 18.5910003,14.5968506 C18.473392,14.5357484 18.4224735,14.3573983 18.4861893,14.21753 C18.5727958,14.0283653 18.8455029,13.9687951 19.0244839,13.9924069 M19.4181338,14.834861 C19.483652,14.9261539 19.4693227,15.0885525 19.4303903,15.1395612 C19.3097179,15.3044832 18.9737456,15.3987501 18.835139,15.3311591 C18.7298773,15.2795196 18.6259674,15.0475473 18.7492534,14.9081296 C18.8774059,14.7638454 19.1009068,14.6775092 19.30386,14.7197761 C19.3489206,14.7297795 19.3786607,14.7796166 19.4181338,14.834861 M19.5031182,15.3536894 C19.5951321,15.3636929 19.6770523,15.4648991 19.7214821,15.5752977 C19.77934,15.7180499 19.7208513,15.8843237 19.6752499,15.9154156 C19.5650315,15.9902163 19.216262,16.200199 18.9966364,16.0744797 C18.8760541,16.0051764 18.8426191,15.8468333 18.835139,15.7533775 C18.8109865,15.4512908 19.2691633,15.3276444 19.5031182,15.3536894 M18.2151945,17.514348 C18.1682412,17.3944867 18.1247127,17.2171279 18.2188894,17.1444 C18.4089553,16.9944381 18.8389241,16.8632215 19.0024943,17.0899667 C19.1088374,17.2373151 19.0776555,17.4869511 18.8914648,17.58266 C18.699236,17.6806218 18.3236104,17.7935438 18.2151945,17.514348 M17.2928028,17.5275958 C17.4835896,17.4304451 17.7586399,17.3134676 17.9640263,17.4457657 C18.0580229,17.5059667 18.1550835,17.7561435 18.0887542,17.8669927 C17.9479847,18.1023896 17.5772256,18.1624104 17.3414683,18.1018489 C17.1409484,18.0497588 17.0803868,17.6349303 17.2928028,17.5275958 M17.1212118,16.71353 C17.3515619,16.5514919 17.8062239,16.4467709 17.9156312,16.8007674 C17.9441997,16.8926912 17.9603314,16.9941678 17.9134683,17.0682475 C17.7858565,17.2733636 17.462321,17.3273463 17.2457594,17.2968853 C17.0115341,17.2628194 16.9009553,16.8679979 17.1212118,16.71353 M16.9275411,15.8888298 C17.1486988,15.7632908 17.6200333,15.5967466 17.7311529,15.9559702 C17.7755827,16.1028679 17.7710766,16.2843723 17.6451771,16.3490794 C17.4649345,16.4436166 17.1794302,16.5427501 16.9717906,16.4131556 C16.7983071,16.303478 16.7748756,15.9760672 16.9275411,15.8888298 M18.1656277,14.406244 C18.072983,14.4889754 17.9789865,14.5067293 17.8556104,14.5486357 C17.682938,14.6071244 17.5022447,14.4741955 17.482418,14.3090031 C17.4492534,14.0262024 17.7523314,13.9840256 17.9526711,13.9487882 C18.098938,13.9224728 18.1893296,14.0536894 18.216366,14.1419182 C18.243853,14.2269026 18.2403383,14.3407258 18.1656277,14.406244 M18.5371979,15.0717899 C18.4057109,15.2678038 17.8755272,15.3910898 17.7586399,15.1893983 C17.6732049,15.0419598 17.6200333,14.834861 17.7805393,14.7357276 C17.9491563,14.6321782 18.1489553,14.5700846 18.3452395,14.6055023 C18.5297179,14.638036 18.623444,14.9414745 18.5371979,15.0717899 M18.8199085,16.2853636 C18.8952499,16.405225 18.9478808,16.5666322 18.83586,16.7156028 C18.7342932,16.8520464 18.3717352,16.9157622 18.1860853,16.8707917 C18.0842482,16.8451972 18.0360333,16.7214607 18.0205324,16.6380083 C17.9989934,16.5251764 17.9888097,16.4114433 18.0887542,16.3193393 C18.2324977,16.1877622 18.4242759,16.190556 18.608574,16.190556 C18.6842759,16.190556 18.79134,16.2396721 18.8199085,16.2853636 M18.7144666,15.8781054 C18.6015445,16.0854745 18.2188894,16.1121504 18.0467577,16.0893497 C17.9256347,16.0730378 17.8401997,15.8777449 17.8438045,15.7141747 C17.8450662,15.6300915 17.8712915,15.5743064 17.9287889,15.5434849 C18.1199362,15.4409269 18.3154995,15.3723445 18.5210662,15.4056894 C18.7215861,15.4374121 18.7995411,15.7207536 18.7144666,15.8781054 M16.7005255,15.4311938 C16.5705705,15.0308749 17.0705636,14.9046149 17.3624666,14.9664381 C17.5656,15.0086149 17.6334614,15.3990205 17.4443868,15.5223965 C17.2104319,15.6743411 16.7953331,15.7235473 16.7005255,15.4311938 M15.9465705,16.4142371 C16.0964423,16.259679 16.3668964,16.250036 16.5780506,16.2785144 C16.7076451,16.2964485 16.7635203,16.4274849 16.7814544,16.5697865 C16.8321026,16.9608229 16.3069657,17.0266114 16.0570593,16.9351383 C15.8924076,16.8749373 15.8067924,16.5587016 15.9465705,16.4142371 M15.8408582,15.6564069 C15.9974891,15.4721088 16.2593816,15.4284901 16.4763938,15.4881504 C16.608782,15.5241088 16.6700645,15.6789373 16.6670905,15.8524208 C16.6645671,15.9508333 16.5970662,16.0221192 16.5365047,16.047173 C16.3823071,16.1097172 16.2040471,16.1562198 16.0357005,16.1356721 C15.8281511,16.1101678 15.7024319,15.8197969 15.8408582,15.6564069 M15.8657317,14.8313463 C16.058321,14.7526704 16.4172742,14.6822856 16.4777456,14.9573359 C16.5593955,15.3237692 16.1270835,15.3835196 15.8960125,15.3197137 C15.7191043,15.2711383 15.6854891,14.9039841 15.8657317,14.8313463 M17.2511667,14.2258211 C17.3951806,14.3075612 17.4254614,14.5383619 17.3377733,14.6719217 C17.2212464,14.8489199 16.8230003,14.951478 16.608782,14.7966496 C16.4865775,14.7079702 16.4206988,14.3442406 16.6711459,14.2570932 C16.8712153,14.187069 17.0629033,14.1191175 17.2511667,14.2258211 M17.0471321,13.9626669 C16.883652,14.063783 16.6508686,14.103887 16.4964007,14.0179113 C16.3620298,13.9446426 16.3672568,13.7482683 16.4338565,13.642556 C16.5433539,13.4666392 16.8154302,13.4475334 17.0034232,13.5025976 C17.1656416,13.5496409 17.2263834,13.8510967 17.0471321,13.9626669 M15.7246919,13.6757206 C15.7411841,13.6234503 15.7644354,13.6085802 15.7969692,13.5926288 C15.9342239,13.5272007 16.085087,13.5095369 16.216574,13.5940707 C16.3113816,13.6554433 16.3030003,13.7970239 16.232886,13.8703827 C16.1299674,13.9785282 15.9209761,13.9830343 15.7870558,13.9127397 C15.7006295,13.867679 15.696574,13.7610655 15.7246919,13.6757206 M15.7684908,14.2493428 C15.8293227,14.0758593 16.0456139,14.0854121 16.2096347,14.1066808 C16.411236,14.1329962 16.4515203,14.3914641 16.3798738,14.5001504 C16.2810107,14.6502024 16.0550766,14.6214537 15.8752846,14.598653 C15.7291078,14.5798177 15.720366,14.386147 15.7684908,14.2493428 M18.6136208,19.4671868 C18.6631875,19.6632908 18.6136208,19.8495716 18.439236,19.9119355 C18.2151945,19.991062 17.9121165,20.1066877 17.7329553,19.9861054 C17.5281095,19.8485802 17.4294267,19.4588957 17.6648236,19.30614 C17.942938,19.1242752 18.4962828,19.005225 18.6136208,19.4671868 M18.3116243,18.8579667 C18.1609414,19.0291972 17.9151806,19.0236097 17.6739258,19.0941747 C17.5808305,19.121121 17.4702516,19.0390205 17.4217664,18.9538558 C17.3326364,18.7945213 17.243236,18.5812042 17.4141962,18.4273671 C17.5555965,18.2984936 17.7486364,18.309218 17.9219397,18.2576686 C17.9996243,18.234147 18.0949726,18.2071106 18.1893296,18.2708263 C18.3847127,18.4041158 18.4608652,18.6898905 18.3116243,18.8579667 M19.9089345,16.2940153 C19.9513816,16.4184728 20.0085185,16.5099459 19.9601234,16.6339529 C19.9025359,16.7862579 19.7549172,16.8069858 19.6162205,16.8572735 C19.4869865,16.9040464 19.2711459,16.9632562 19.1628201,16.8499737 C19.0382724,16.7211002 18.988165,16.4584867 19.1371355,16.3460153 C19.3303556,16.2022718 19.806827,16.0038246 19.9089345,16.2940153 M22.5304735,15.1745282 C22.6444769,14.710043 22.7859674,14.2388887 22.8214752,13.7482683 C22.8734752,13.014861 22.7153123,12.2527951 22.2451494,11.6975577 C22.2913816,11.9369199 22.3526641,12.1393324 22.3848374,12.3907709 C22.4229588,12.6941192 22.3802412,13.0321643 22.3018357,13.3375854 C22.2424458,13.569017 22.1384458,13.7938697 22.0348964,14.0086288 C21.9129622,14.2631314 21.7306468,14.5398939 21.5490523,14.7669095 C21.0404076,15.3996513 20.2476104,16.6344936 20.2476104,16.6344936 C20.2476104,16.6344936 20.1811009,16.6297172 20.141808,16.6297172 C20.1324354,16.4758801 20.4974267,15.9486704 20.6815445,15.6537033 C21.0857386,15.0069927 21.3919709,14.6588541 21.7435341,14.0981192 C21.9637906,13.7443931 22.1320471,13.3141539 22.1860298,12.924199 C22.2956173,12.1295092 21.8671806,11.1772873 21.2511113,10.8604208 C21.3919709,11.4540499 21.3772811,12.290556 21.0612256,12.6424797 C20.4631806,13.3089269 20.107652,13.8077484 19.6807473,14.6622787 C19.6686711,14.6850794 19.5686364,14.5469234 19.4861754,14.4933012 C19.3934406,14.4320187 19.4453504,14.248712 19.4120957,14.1253359 C19.3820853,14.0204347 19.3327889,13.9397761 19.3181893,13.9213913 C19.1918392,13.7665629 19.0696347,13.7568298 19.0430489,13.7104173 C19.0123175,13.658147 19.0270073,13.5274711 18.916879,13.3785906 C18.861905,13.3037899 18.7215861,13.2482752 18.6644492,13.1779806 C18.6027161,13.1011972 18.5747785,12.8659806 18.4044492,12.769731 C18.3236104,12.7243099 18.2860298,12.58327 18.2082551,12.514147 C17.9688929,12.3020014 17.7298912,12.3429165 17.6841095,12.3297588 C17.6225567,12.3130863 17.5022447,12.1600603 17.2882066,12.1232908 C17.079035,12.0876929 16.9639501,12.2272007 16.8552638,12.1767328 C16.582827,12.0505629 16.3219258,12.0402891 16.032366,12.3630135 C15.945399,12.4589026 15.7951667,12.3692319 15.6076243,12.5126149 C15.4429726,12.6380638 15.4400887,12.75414 15.3560957,12.7700915 C15.1985636,12.7995612 15.0810454,12.9255508 15.0203036,13.0630759 C14.9888513,13.1340014 14.9651494,13.277114 14.9467646,13.3715612 C14.9208998,13.5019667 14.854931,13.6220984 14.8537594,13.7179875 C14.8522274,13.8510967 14.894314,13.9231036 14.8825081,13.9826738 C14.8631321,14.0689199 14.793288,14.1479563 14.7847265,14.2286149 C14.778418,14.2743064 14.7746329,14.3962406 14.8077976,14.4647328 C14.849704,14.5493567 14.778418,14.6228055 14.7413782,14.7128367 C14.7059605,14.7966496 14.6687404,14.9401227 14.6800957,15.0413289 C14.6950558,15.1801158 14.7746329,15.2309442 14.7127196,15.3404416 C14.6114232,15.5181608 14.483451,15.7956444 14.7079432,16.1499113 C14.7491286,16.2147085 14.6139466,16.3408783 14.6062863,16.5258073 C14.5977248,16.7270482 14.7192083,16.8756582 14.7524631,16.9649685 C14.7586815,16.9968714 14.698931,16.9951591 14.6968582,17.0294052 C14.1622586,16.4640742 13.689392,15.9428125 13.0693574,15.4520118 C12.6906676,15.1526288 12.3161234,14.9009199 11.8964284,14.6761574 C10.7750489,14.0748679 9.47243536,13.6726565 8.29238683,13.8195542 C8.73668492,14.177426 9.29750988,14.4325594 9.75397435,14.8389165 C10.1864666,15.224095 10.5789449,15.5531279 10.9728652,15.962549 C11.5911875,16.6047536 12.0936139,17.2559702 12.6170385,18.0117276 C12.7724977,18.2354988 12.8749657,18.3851002 13.0197906,18.6185144 C13.1657872,18.8521088 13.3279154,19.1001227 13.4607542,19.3314641 C14.130626,20.4945698 14.6795549,21.5714295 15.2350627,22.7632839 C15.3891702,23.0931279 15.5187646,23.4382024 15.669808,23.7657934 C15.7102724,23.8544728 15.7681303,23.7886842 15.8090454,23.7657934 C16.0099258,23.6492666 16.2234232,23.5524763 16.431964,23.4539737 C16.598418,23.3775508 16.7500021,23.3249199 16.8987023,23.2676929 C17.2745081,23.1245802 17.6311182,23.0467154 18.0248582,22.9650655 C18.6818426,22.8274503 19.8623418,22.855478 19.8623418,22.855478 L22.1008652,22.854757 L22.1618773,22.854757 C22.1384458,22.2133636 21.9860506,21.5898142 21.9490107,20.9462579 C21.9205324,20.4249962 21.9379258,19.9209477 21.9563106,19.3986045 C22.0063279,17.9833393 22.2145081,16.4640742 22.5304735,15.1745282" id="Fill-31"></path>
                        <path d="M7.27148354,9.86486863 C6.83475563,10.300425 6.70444021,10.4607508 6.44975737,10.9421789 C6.29979549,11.2251598 6.10936915,11.5886191 6.055026,12.0568894 C6.95245407,11.7152395 7.68468977,11.0179709 8.34627036,10.2480645 C8.83571924,9.67705581 9.21540035,8.91967626 9.69809012,8.35578718 C8.84788562,8.6408409 7.95081802,9.18850815 7.27148354,9.86486863" id="Fill-33"></path>
                        <path d="M4.70232305,11.0889865 C5.04063847,10.5174371 5.52531092,9.89956534 6.02773726,9.47797782 C5.79504402,10.0006815 5.50836811,10.5186087 5.40986551,11.1368409 C5.21457262,12.3675376 5.03027452,13.2296381 4.82605962,14.3529102 C5.38418094,13.9549345 5.9729435,13.3293123 6.56477019,12.8926745 C7.02204575,12.5567023 7.48049289,12.3322101 7.95074593,12.0089449 C8.23030225,11.8159951 8.41243744,11.5684319 8.64504055,11.3362794 C8.36800763,12.5043418 7.34305789,13.6831286 6.6092,14.2326884 C5.68734905,14.9240991 5.35687418,15.0341373 3.87545997,16.5406052 C3.68728666,14.6806815 3.72081179,12.7474891 4.70232305,11.0889865" id="Fill-35"></path>
                        <path d="M1.68009567,17.2666946 C1.74903847,16.3006842 1.86493449,15.5282544 2.0996104,14.586036 C2.26399168,13.9279702 2.61807834,12.9484416 3.1286156,12.5465906 C3.0660714,12.7852319 3.03326724,13.1431036 3.00911473,13.3844485 C2.90908007,14.3796582 3.09959653,15.5354641 3.12230711,16.5295023 C3.13366239,17.0183203 3.12933657,17.3952076 3.05624818,17.8544659 C2.98045615,18.3359841 3.04354107,18.9268194 3.04354107,18.9268194 C3.04354107,18.9268194 3.30750641,18.6255438 3.54317366,18.2500083 C4.05803674,17.4321574 4.22295875,17.1895508 4.6378773,16.7464243 C5.15256014,16.1966842 5.72825511,15.6874988 6.37821005,15.2365317 C6.29980451,15.542043 5.96797782,16.1361227 5.83081317,16.3748541 C5.64777678,16.6940638 5.56468492,16.9843445 5.13156187,17.7076582 C4.52216153,18.7238662 4.250626,18.8610308 3.57399515,19.9478939 C3.42745789,20.1842821 2.82661906,21.0835127 2.68098302,21.3580222 C2.36402634,20.7021192 2.24443536,20.1288575 1.85556187,19.0609199 C1.61124298,18.3899667 1.64774211,17.7188333 1.68009567,17.2666946" id="Fill-37"></path>
                        <path d="M0.739148007,22.2919314 C0.371633276,21.3390787 0.203196534,20.4550787 0.0786488735,19.4519383 C0.0025864818,18.838122 0.0379140381,18.0200908 0.25699896,17.4298863 C0.314406239,17.5738101 0.431654073,17.9397927 0.447515425,17.9944062 C0.610454766,18.5427043 0.678676603,18.8059487 0.906413172,19.3346003 C1.0807078,19.7402364 1.29375459,20.0633213 1.5216714,20.4640908 C1.72895043,20.8298031 1.90387591,21.3112312 2.05383778,21.6798274 C2.53634731,22.8609574 2.57194523,23.9670163 2.75669393,24.0879591 C2.88935251,23.8034461 2.93098856,23.5311896 2.94585858,23.3972693 C3.08933172,22.0900596 3.26146343,20.9019002 4.90761941,19.3611861 C5.05875286,19.8198135 4.98214974,20.6652416 4.89139757,21.1181913 C4.69457262,22.1083542 4.53550849,22.5839244 4.09950156,23.543356 C3.86906135,24.0488464 3.56129705,24.7924374 3.4769435,25.0386489 C3.25596603,25.6803127 3.180174,26.0164652 3.04120693,26.3961463 C2.26400069,25.1010128 1.30745303,23.7637026 0.739148007,22.2919314" id="Fill-39"></path>
                        <path d="M2.02033969,28.249356 C1.46708492,27.4789088 1.26539341,27.0918378 0.905268631,26.2721844 C0.602911612,25.5841081 0.515854419,25.3293352 0.338856153,24.5589782 C0.242065858,24.1392832 0.18745234,23.7581601 0.262523397,23.5097858 C0.695736568,24.2942919 0.99142461,25.1720735 1.55810745,25.822479 C2.00790295,26.3386038 2.44120624,26.7782156 2.79889775,27.2139522 C3.34764645,27.8832832 3.77959792,28.516836 4.30617678,29.213564 C4.35051646,28.8642537 4.36772964,28.5103473 4.28923397,27.9382572 C4.18216984,27.1539314 4.24813865,26.511096 4.38512305,25.751914 C4.55869671,24.7886974 4.68603813,24.3116853 5.02020797,23.3373837 C5.42908839,24.1392832 5.4274662,25.0669019 5.53011438,25.9171064 C5.72829116,27.5677685 5.21198614,29.5356575 5.11041941,30.3560319 C5.08329289,30.5721428 5.12069324,31.1054808 5.13159792,31.3133005 C4.35961872,30.7050718 3.67262392,30.0911653 3.00680763,29.4232763 C2.70336915,29.1208291 2.28691854,28.6192139 2.02033969,28.249356" id="Fill-41"></path>
                        <path d="M4.94729983,34.3011196 C4.59582669,34.0479688 3.65117504,33.3260069 3.20390295,32.757792 C2.55259619,31.9305685 2.40921317,31.5763016 1.97951473,30.6247106 C1.92688388,30.5087244 1.68373657,29.9702496 1.66390988,29.604357 C3.07169497,31.3039549 4.33195147,31.5571958 5.67484922,32.9675945 C6.16763258,33.4844402 6.67222184,33.970825 6.93853033,34.2146932 C7.1430156,34.4028666 7.39679723,34.4598232 7.39679723,34.4598232 C7.39679723,34.4598232 7.37030156,34.0974454 7.2377331,33.8453761 C6.34192721,32.1328007 6.1727695,30.342721 6.30867244,28.4216049 C6.71764298,28.9279064 6.84660659,29.2659515 7.10615598,29.7554905 C7.38841594,30.2888284 7.53233969,30.6184922 7.6642773,30.9468042 C8.43084922,32.8546724 8.63037782,35.0586794 9.10405546,36.1677123 C7.64192721,35.6752894 6.49062738,35.4121352 4.94729983,34.3011196" id="Fill-43"></path>
                        <path d="M10.9432243,38.8035806 C10.5477719,38.8302565 9.77236811,38.8277331 9.35907175,38.7604125 C7.2661844,38.4255217 5.32073553,36.90887 4.34210815,35.2427071 C5.22944263,35.7840659 5.87092617,36.1453622 6.65119653,36.4155459 C7.34621213,36.6558094 8.00526932,36.7267348 9.16540104,37.0563986 C9.86546343,37.2540347 10.5584062,37.534312 10.8020042,37.6255147 C11.5780388,37.9145338 11.9048187,37.8432478 11.9048187,37.8432478 C11.9048187,37.8432478 11.9048187,37.7255494 11.6148984,37.4092236 C11.0372208,36.7787348 10.8256159,36.6281421 10.3503161,36.1433795 C10.194226,35.9831438 9.83662461,35.4392617 9.65512028,35.0777851 C9.14151889,34.0552686 9.0844721,33.2357955 8.61539064,32.1128839 C10.3270648,33.1180069 11.1608672,34.5048839 12.0657754,36.2534177 C12.34407,36.7888284 12.7204166,37.4075113 13.0642295,37.7474489 C13.2953906,37.9755459 13.6211792,38.3222426 13.6211792,38.3222426 C13.6211792,38.3222426 13.3824478,38.3784783 12.6393075,38.4882461 C12.3059487,38.5370017 11.5955224,38.7581594 10.9432243,38.8035806" id="Fill-45"></path>
                        <path d="M19.2399369,38.9363023 C20.1435834,39.083921 20.9465643,39.3036367 21.7683806,39.5854461 C21.9893581,39.6615986 22.3252402,39.8285934 22.5579334,39.9465622 C23.1406579,40.2429712 23.4757289,40.4353802 23.9763529,40.7796437 C24.782488,41.334791 25.648644,41.9330163 26.4301761,42.8408984 C26.4468485,42.8588326 26.5731085,42.9938343 26.4890253,43.0598031 C26.3358191,43.1797546 25.9585712,43.3506246 25.8331224,43.2397754 C25.1180998,42.6040596 25.1541484,42.4003854 24.2875418,41.615609 C24.0652125,41.4153594 23.7297809,41.1345414 23.3289213,40.8603023 C22.9377948,40.5928222 22.4650184,40.3004686 22.0258572,40.0835466 C21.6266198,39.8874426 21.0118121,39.8285934 20.6666475,39.8285934 L20.6714239,39.8311168 C20.5146128,39.8248083 19.6132194,39.8200319 19.4044984,39.8336402 C17.6334343,39.9549435 17.720131,40.1134669 16.6988763,40.3900492 C15.8589456,40.6185068 14.9578225,40.7812659 14.0633685,40.9013976 C13.1469248,41.025765 12.3269109,41.0407251 11.4678745,40.9531272 C10.303417,40.8332659 9.02964229,40.5086489 8.07886239,39.895914 C8.94817262,39.9105137 9.84073414,40.0776887 10.7055383,40.0114496 C11.0693581,39.9831515 11.6598329,39.9283577 12.059521,39.805252 C12.8539404,39.5613837 13.3096839,39.4661255 14.1509664,39.2314496 C14.8738295,39.0302988 15.6026406,38.9608153 16.3575868,38.8813282 C17.4022731,38.7693976 18.3699958,38.7947217 19.2399369,38.9363023" id="Fill-47"></path>
                        <path d="M35.4354586,9.86486863 C35.8723667,10.300425 36.0031328,10.4607508 36.2576354,10.9421789 C36.4077775,11.2251598 36.5982038,11.5886191 36.652547,12.0568894 C35.7543979,11.7152395 35.0228832,11.0179709 34.3607619,10.2480645 C33.8710426,9.67705581 33.4919023,8.91967626 33.0093026,8.35578718 C33.8595972,8.6408409 34.7564846,9.18850815 35.4354586,9.86486863" id="Fill-49"></path>
                        <path d="M38.0052319,11.0889865 C37.6664659,10.5174371 37.1820638,9.89956534 36.6799078,9.47797782 C36.914764,10.0405151 37.2573151,10.7412984 37.2975092,11.1368409 C37.4224173,12.3761893 37.6770101,13.2296381 37.8814052,14.3529102 C37.3234641,13.9549345 36.7340707,13.3293123 36.142244,12.8926745 C35.6859598,12.5567023 35.2271522,12.3322101 34.7572596,12.0089449 C34.4770724,11.8159951 34.2952076,11.5684319 34.0623341,11.3362794 C34.3394572,12.5043418 35.3643168,13.6831286 36.0983549,14.2326884 C37.0198454,14.9240991 37.3504104,15.0341373 38.8311938,16.5406052 C39.0191868,14.6806815 38.9859321,12.7474891 38.0052319,11.0889865" id="Fill-51"></path>
                        <path d="M41.0273782,17.2666946 C40.9577144,16.3006842 40.8429899,15.5282544 40.6079536,14.586036 C40.4434821,13.9279702 40.0893955,12.9484416 39.5780471,12.5465906 C39.6413123,12.7852319 39.6736659,13.1431036 39.6980887,13.3844485 C39.7990246,14.3796582 39.6087785,15.5354641 39.5851667,16.5295023 C39.5739016,17.0183203 39.5780471,17.3952076 39.650775,17.8544659 C39.7266572,18.3359841 39.6639328,18.9268194 39.6639328,18.9268194 C39.6639328,18.9268194 39.4000575,18.6255438 39.1638496,18.2500083 C38.6500679,17.4321574 38.4849657,17.1895508 38.0690558,16.7464243 C37.5548236,16.1966842 36.9785879,15.6874988 36.3283626,15.2365317 C36.4077594,15.542043 36.7394059,16.1361227 36.8765705,16.3748541 C37.060418,16.6940638 37.1425185,16.9843445 37.575912,17.7076582 C38.1851321,18.7238662 38.4567577,18.8610308 39.1328478,19.9478939 C39.2793851,20.1842821 39.881035,21.0835127 40.0265809,21.3580222 C40.343808,20.7021192 40.4629484,20.1288575 40.8520021,19.0609199 C41.0968617,18.3899667 41.0602724,17.7188333 41.0273782,17.2666946" id="Fill-53"></path>
                        <path d="M41.9682808,22.2919314 C42.3356153,21.3390787 42.5036915,20.4550787 42.6289601,19.4519383 C42.7051127,18.838122 42.6691542,18.0200908 42.4507002,17.4298863 C42.3931127,17.5738101 42.2763154,17.9397927 42.2600035,17.9944062 C42.0965234,18.5427043 42.0290225,18.8059487 41.8015563,19.3346003 C41.6271716,19.7402364 41.4129532,20.0633213 41.1856672,20.4640908 C40.9784783,20.8298031 40.803643,21.3112312 40.65287,21.6798274 C40.1710815,22.8609574 40.1353033,23.9670163 39.9507348,24.0879591 C39.8174454,23.8034461 39.7761698,23.5311896 39.7617504,23.3972693 C39.6180971,22.0900596 39.4458752,20.9019002 37.7998995,19.3611861 C37.6484055,19.8198135 37.725279,20.6652416 37.8153102,21.1181913 C38.0128562,22.1083542 38.1726412,22.5839244 38.6078371,23.543356 C38.8383674,24.0488464 39.1462218,24.7924374 39.2311161,25.0386489 C39.4507418,25.6803127 39.5268943,26.0164652 39.6670329,26.3961463 C40.4435182,25.1010128 41.4000659,23.7637026 41.9682808,22.2919314" id="Fill-55"></path>
                        <path d="M40.6872243,28.249356 C41.2411099,27.4789088 41.4420804,27.0918378 41.8021151,26.2721844 C42.1044721,25.5841081 42.1910787,25.3293352 42.3687979,24.5589782 C42.4656783,24.1392832 42.5200215,23.7581601 42.4445899,23.5097858 C42.0125484,24.2942919 41.7152381,25.1720735 41.1487355,25.822479 C40.6997511,26.3386038 40.2662676,26.7782156 39.9085761,27.2139522 C39.3603681,27.8832832 38.9271549,28.516836 38.4013872,29.213564 C38.3573179,28.8642537 38.3394738,28.5103473 38.4173386,27.9382572 C38.5253941,27.1539314 38.4592451,26.511096 38.3223508,25.751914 C38.148687,24.7886974 38.0215258,24.3116853 37.687356,23.3373837 C37.2789262,24.1392832 37.2800076,25.0669019 37.1772693,25.9171064 C36.9786419,27.5677685 37.4962087,29.5356575 37.5976853,30.3560319 C37.6241809,30.5721428 37.5867806,31.1054808 37.575966,31.3133005 C38.3479452,30.7050718 39.0348499,30.0911653 39.7006662,29.4232763 C40.0041948,29.1208291 40.419564,28.6192139 40.6872243,28.249356" id="Fill-57"></path>
                        <path d="M37.7604804,34.3011196 C38.1115931,34.0479688 39.0563348,33.3260069 39.5033366,32.757792 C40.1547334,31.9305685 40.2983868,31.5763016 40.7279951,30.6247106 C40.7797248,30.5087244 41.0238634,29.9702496 41.0436901,29.604357 C39.6359951,31.3039549 38.3753782,31.5571958 37.0325705,32.9675945 C36.5399674,33.4844402 36.0357386,33.970825 35.7691598,34.2146932 C35.5648548,34.4028666 35.3110731,34.4598232 35.3110731,34.4598232 C35.3110731,34.4598232 35.3371182,34.0974454 35.4694163,33.8453761 C36.3655827,32.1328007 36.5347404,30.342721 36.3981165,28.4216049 C35.9904977,28.9279064 35.8607231,29.2659515 35.601444,29.7554905 C35.3196347,30.2888284 35.1752603,30.6184922 35.0437733,30.9468042 C34.2765705,32.8546724 34.076321,35.0586794 33.6028236,36.1677123 C35.0660333,35.6752894 36.2169726,35.4121352 37.7604804,34.3011196" id="Fill-59"></path>
                        <path d="M31.7641594,38.8035806 C32.1604229,38.8302565 32.9351057,38.8277331 33.3489428,38.7604125 C35.4419203,38.4255217 37.3867383,36.90887 38.3654558,35.2427071 C37.4773102,35.7840659 36.8358267,36.1453622 36.0560971,36.4155459 C35.360721,36.6558094 34.7022045,36.7267348 33.5426135,37.0563986 C32.8419203,37.2540347 32.1490676,37.534312 31.9052894,37.6255147 C31.1291646,37.9145338 30.802565,37.8432478 30.802565,37.8432478 C30.802565,37.8432478 30.802565,37.7255494 31.0923951,37.4092236 C31.6701629,36.7787348 31.8821282,36.6281421 32.356617,36.1433795 C32.5131577,35.9831438 32.8708492,35.4392617 33.0521733,35.0777851 C33.5658648,34.0552686 33.6230017,33.2357955 34.0926239,32.1128839 C32.3809497,33.1180069 31.545435,34.5048839 30.6410676,36.2534177 C30.3634038,36.7888284 29.9871473,37.4075113 29.6437851,37.7474489 C29.4128943,37.9755459 29.0862946,38.3222426 29.0862946,38.3222426 C29.0862946,38.3222426 29.325026,38.3784783 30.0687972,38.4882461 C30.4017054,38.5370017 31.1116811,38.7581594 31.7641594,38.8035806" id="Fill-61"></path>
                        <path d="M23.4674468,38.9363023 C22.5639806,39.083921 21.7617206,39.3036367 20.9392735,39.5854461 C20.7174849,39.6615986 20.3821435,39.8285934 20.1494503,39.9465622 C19.5669061,40.2429712 19.2323757,40.4353802 18.7313012,40.7796437 C17.9243549,41.334791 17.0594607,41.9330163 16.2773879,42.8408984 C16.2604451,42.8588326 16.1336444,42.9938343 16.2183584,43.0598031 C16.3719251,43.1797546 16.7494433,43.3506246 16.8737206,43.2397754 C17.5890135,42.6040596 17.5526946,42.4003854 18.4200222,41.615609 C18.64127,41.4153594 18.9768818,41.1345414 19.3786426,40.8603023 C19.7704901,40.5928222 20.2418246,40.3004686 20.6815265,40.0835466 C21.0801331,39.8874426 21.6962024,39.8285934 22.0407362,39.8285934 L22.0356894,39.8311168 C22.1927709,39.8248083 23.0938038,39.8200319 23.3029754,39.8336402 C25.0744901,39.9549435 24.9872527,40.1134669 26.0079667,40.3900492 C26.8485282,40.6185068 27.7494711,40.7812659 28.6440153,40.9013976 C29.5600083,41.025765 30.3805629,41.0407251 31.2394191,40.9531272 C32.404147,40.8332659 33.6775612,40.5086489 34.6278905,39.895914 C33.759121,39.9105137 32.8672804,40.0776887 32.0013948,40.0114496 C31.6373047,39.9831515 31.0476409,39.9283577 30.6478627,39.805252 C29.8534433,39.5613837 29.3973393,39.4661255 28.5566877,39.2314496 C27.8336444,39.0302988 27.1048333,38.9608153 26.3503376,38.8813282 C25.3051106,38.7693976 24.337478,38.7947217 23.4674468,38.9363023" id="Fill-63"></path>
                        <polygon id="Fill-65" points="20.2913733 0.0489538995 18.7003716 5.95613588 17.0114981 5.95613588 15.9551861 2.10804575 14.9223958 5.95613588 13.2375778 5.95613588 11.6467563 0.0489538995 13.2367667 0.0489538995 14.1429366 4.11531785 15.233044 0.0489538995 16.7524894 0.0489538995 17.7867217 4.11531785 18.7383127 0.0489538995"></polygon>
                        <polygon id="Fill-67" points="25.5398856 1.1913948 22.8223674 1.1913948 22.8223674 2.29051438 25.3414385 2.29051438 25.3414385 3.43298232 22.8223674 3.43298232 22.8223674 5.95610884 21.3068873 5.95610884 21.3068873 0.0489268631 25.5398856 0.0489268631"></polygon>
                        <path d="M29.8921144,1.94739549 C29.8921144,1.78121179 29.8470537,1.63809913 29.7570225,1.51796742 C29.6673518,1.3978357 29.5626308,1.31420312 29.4435806,1.26661906 C29.2849671,1.20326378 29.1302288,1.16829671 28.9794558,1.16171785 C28.828773,1.15522912 28.6278024,1.15189463 28.3766343,1.15189463 L28.1146516,1.15189463 L28.1146516,2.91728111 L28.5510191,2.91728111 C28.810208,2.91728111 29.0237054,2.90150988 29.1917816,2.86969705 C29.3596776,2.83815459 29.5006274,2.77470919 29.6144506,2.67972132 C29.7119619,2.59536776 29.7828873,2.49434177 29.8264159,2.37691369 C29.870305,2.25957574 29.8921144,2.11637296 29.8921144,1.94739549 M31.4670745,1.91350988 C31.4670745,2.17810607 31.4207522,2.436574 31.3282877,2.68909393 C31.235643,2.94170399 31.103435,3.15402981 30.9313934,3.32580104 C30.6960867,3.55867452 30.4334731,3.73450121 30.1440035,3.85346135 C29.8543536,3.97260173 29.4939584,4.03199168 29.0629081,4.03199168 L28.1146516,4.03199168 L28.1146516,5.9560818 L26.591331,5.9560818 L26.591331,0.048989948 L29.0985962,0.048989948 C29.4739515,0.048989948 29.7907279,0.0813435009 30.048565,0.146140728 C30.3066724,0.210937955 30.5347695,0.308088735 30.7330364,0.43777331 C30.9713172,0.59377331 31.1529116,0.793392028 31.2785407,1.03680971 C31.4040797,1.28013726 31.4670745,1.57240069 31.4670745,1.91350988" id="Fill-69"></path>
                        <polygon id="Fill-71" points="13.4801754 47.1926045 12.4181858 50.6196478 11.2519258 50.6196478 10.5535757 48.309478 9.86369705 50.6196478 8.68590156 50.6196478 7.63301421 47.1926045 8.78548562 47.1926045 9.37379757 49.5544139 10.1050419 47.1926045 11.0785324 47.1926045 11.773548 49.5544139 12.3523972 47.1926045"></polygon>
                        <path d="M16.5453546,46.6767861 L16.4632541,46.6767861 C16.4144984,46.662547 16.3511432,46.646235 16.273008,46.6280305 C16.1948728,46.609826 16.1112402,46.6004534 16.02193,46.6004534 C15.8069005,46.6004534 15.6612645,46.6391154 15.5852021,46.7164395 C15.5092298,46.7938537 15.4711986,46.943365 15.4711986,47.1650634 L15.4711986,47.1926406 L16.3165366,47.1926406 L16.3165366,47.9370426 L15.5076977,47.9370426 L15.5076977,50.6196839 L14.4061449,50.6196839 L14.4061449,47.9370426 L13.9360721,47.9370426 L13.9360721,47.1926406 L14.4061449,47.1926406 L14.4061449,47.0979231 C14.4061449,46.6788589 14.5175348,46.3646059 14.7403147,46.1548936 C14.9630946,45.9453615 15.3003286,45.8406406 15.7519265,45.8406406 C15.9146856,45.8406406 16.0622142,45.846138 16.1943321,45.8574031 C16.32654,45.868488 16.4436076,45.8832679 16.5453546,45.9014724 L16.5453546,46.6767861 Z" id="Fill-73"></path>
                        <path d="M19.4079411,48.8817664 C19.4079411,48.548678 19.3509844,48.3067924 19.2373414,48.15647 C19.1237886,48.0062378 18.9439965,47.9309865 18.6984159,47.9309865 C18.5949567,47.9309865 18.4883432,47.946938 18.3787556,47.9783903 C18.2691681,48.0096624 18.1646274,48.0548132 18.0651334,48.1138426 L18.0651334,49.8352499 C18.1381317,49.8638184 18.216357,49.882113 18.2996291,49.890314 C18.3828111,49.8983348 18.4650017,49.9024804 18.5461109,49.9024804 C18.8363917,49.9024804 19.052773,49.8175861 19.1948042,49.6480679 C19.3369255,49.4784596 19.4079411,49.2229657 19.4079411,48.8817664 M20.5401352,48.8586953 C20.5401352,49.141496 20.4967868,49.3987924 20.4105407,49.6309449 C20.3242045,49.862827 20.2108319,50.0539744 20.0706932,50.2044769 C19.9244263,50.3630905 19.7587834,50.4833123 19.5739445,50.5646017 C19.3889255,50.6460714 19.1908388,50.686626 18.9795043,50.686626 C18.7844818,50.686626 18.6188388,50.6657179 18.4826655,50.6240818 C18.3465823,50.5824458 18.2073449,50.5238669 18.0651334,50.448886 L18.0651334,51.8768582 L16.9634905,51.8768582 L16.9634905,47.1926225 L18.0651334,47.1926225 L18.0651334,47.5495931 C18.2337504,47.4154024 18.4059723,47.3065359 18.5817088,47.2229934 C18.7574454,47.1395411 18.9601282,47.097905 19.1898475,47.097905 C19.6164818,47.097905 19.9483085,47.2545359 20.1849671,47.5677976 C20.4216256,47.8811494 20.5401352,48.3113886 20.5401352,48.8586953" id="Fill-75"></path>
                        <polygon id="Fill-77" points="21.3731716 50.6197019 22.5145581 50.6197019 22.5145581 49.4201872 21.3731716 49.4201872"></polygon>
                        <path d="M25.7431903,49.7405594 C25.8144763,49.6532319 25.8679182,49.5477899 25.903426,49.4248645 C25.9390239,49.3017588 25.9568679,49.1313393 25.9568679,48.9136964 C25.9568679,48.7123653 25.9384832,48.5435681 25.9020742,48.4072146 C25.8652146,48.270861 25.8144763,48.1619945 25.7494087,48.0806149 C25.684251,47.9971626 25.6058454,47.9382232 25.5143723,47.9035265 C25.422809,47.8690101 25.3243064,47.8515265 25.218504,47.8515265 C25.1125213,47.8515265 25.0185248,47.8659459 24.9361539,47.8944243 C24.8536028,47.9228125 24.7748367,47.9800395 24.6995854,48.0653844 C24.6324451,48.1445109 24.5791834,48.2533775 24.5394399,48.3918038 C24.4996964,48.5300499 24.4797795,48.7041643 24.4797795,48.9136964 C24.4797795,49.1009685 24.497173,49.2631868 24.5316894,49.4004416 C24.566296,49.5377865 24.6170343,49.648095 24.6842648,49.7316374 C24.7495127,49.810764 24.8271972,49.868712 24.9179494,49.9054815 C25.0083411,49.9420707 25.1116201,49.9602752 25.2273359,49.9602752 C25.3271002,49.9602752 25.4222683,49.943783 25.5129303,49.9099875 C25.603322,49.8765525 25.6801955,49.8201366 25.7431903,49.7405594 M27.0951903,48.907478 C27.0951903,49.4711868 26.930809,49.9151244 26.6024069,50.2396513 C26.2737345,50.564088 25.8124035,50.7263064 25.218504,50.7263064 C24.624244,50.7263064 24.1630031,50.564088 23.8344208,50.2396513 C23.5058385,49.9151244 23.3416374,49.4711868 23.3416374,48.907478 C23.3416374,48.3399841 23.5069199,47.8944243 23.8374849,47.571069 C24.1680499,47.2474433 24.6282995,47.0855854 25.218504,47.0855854 C25.8166392,47.0855854 26.2786912,47.2483445 26.6052908,47.574043 C26.9318905,47.8993809 27.0951903,48.3439494 27.0951903,48.907478" id="Fill-79"></path>
                        <path d="M30.3666572,48.2392104 L30.269236,48.2392104 C30.222373,48.2229886 30.147392,48.2107321 30.0439328,48.2026211 C29.9403834,48.1946003 29.8540471,48.1904548 29.7851043,48.1904548 C29.6287438,48.1904548 29.4907681,48.2006385 29.3709068,48.2210059 C29.2512256,48.2413733 29.1221719,48.2757997 28.9842863,48.3246454 L28.9842863,50.6196749 L27.8826433,50.6196749 L27.8826433,47.1926315 L28.9842863,47.1926315 L28.9842863,47.6961393 C29.2258114,47.4884998 29.4357941,47.3507945 29.6144146,47.2824825 C29.7931251,47.2144409 29.9576867,47.1802849 30.1079189,47.1802849 C30.1464908,47.1802849 30.1901095,47.1813664 30.2386849,47.1832589 C30.2874406,47.185512 30.3301581,47.188486 30.3666572,47.1926315 L30.3666572,48.2392104 Z" id="Fill-80"></path>
                        <path d="M33.2199161,49.5391924 L33.2199161,47.9859515 C33.1571016,47.959636 33.0798676,47.9387279 32.9886648,47.9234974 C32.8972818,47.9079064 32.8150912,47.9004263 32.7418225,47.9004263 C32.4536146,47.9004263 32.2375036,47.983338 32.0932194,48.1493414 C31.9492055,48.3149844 31.8772887,48.5463258 31.8772887,48.8434558 C31.8772887,49.1730295 31.9384811,49.4028388 32.0614967,49.5331542 C32.1842419,49.6633795 32.366287,49.7286274 32.6078121,49.7286274 C32.7175799,49.7286274 32.8250946,49.711234 32.9307168,49.6766274 C33.036339,49.642201 33.1327688,49.5964194 33.2199161,49.5391924 L33.2199161,49.5391924 Z M34.3216492,50.2260069 C34.3216492,50.5472894 34.2758676,50.8179237 34.1843945,51.0375494 C34.0928312,51.2574454 33.9646787,51.4293969 33.7997567,51.5534038 C33.6349248,51.6794835 33.4361172,51.7706863 33.2031536,51.8265615 C32.9701899,51.8824367 32.7072159,51.9104645 32.4144118,51.9104645 C32.176131,51.9104645 31.9417255,51.8962253 31.7109248,51.8676568 C31.480034,51.8391785 31.280235,51.8045719 31.1113477,51.7640173 L31.1113477,50.9064229 L31.2453581,50.9064229 C31.3792783,50.9593241 31.5430288,51.007539 31.7358884,51.0512478 C31.9289282,51.0951369 32.1015106,51.1170364 32.254086,51.1170364 C32.4570392,51.1170364 32.6221414,51.0981109 32.7491224,51.0606205 C32.8761934,51.0229497 32.9730738,50.9694177 33.0402142,50.9003847 C33.1031189,50.8351369 33.1488104,50.7518648 33.1771986,50.650208 C33.2056769,50.5483709 33.2199161,50.4263466 33.2199161,50.2839549 L33.2199161,50.2197886 C33.0877081,50.3276638 32.9416215,50.4130988 32.7809352,50.4760035 C32.6205192,50.5392686 32.4416284,50.5706308 32.2446232,50.5706308 C31.7649976,50.5706308 31.3952298,50.4263466 31.1352298,50.1372374 C30.8750496,49.8485789 30.7450045,49.4092374 30.7450045,48.8190329 C30.7450045,48.5363224 30.784748,48.2920936 30.8639646,48.0867071 C30.9431813,47.8812305 31.0549317,47.7021594 31.1992159,47.5495841 C31.3331362,47.4071924 31.4982385,47.2961629 31.6944326,47.2170364 C31.8904464,47.1376395 32.0911466,47.097896 32.2966232,47.097896 C32.4813719,47.097896 32.6494482,47.1197054 32.800852,47.1635043 C32.9522558,47.2073934 33.0898711,47.2676846 33.213878,47.3451889 L33.2535314,47.1926135 L34.3216492,47.1926135 L34.3216492,50.2260069 Z" id="Fill-81"></path>
                    </g>
                </g>
            </g>
        </g>
    </g>
</svg>