<?xml version="1.0" encoding="UTF-8" standalone="no"?>
<svg width="55px" height="30px" viewBox="0 0 55 30" version="1.1" xmlns="http://www.w3.org/2000/svg" xmlns:xlink="http://www.w3.org/1999/xlink">
    <!-- Generator: Sketch 3.7.1 (28215) - http://www.bohemiancoding.com/sketch -->
    <title>AECID</title>
    <desc>Created with Sketch.</desc>
    <defs></defs>
    <g id="Welcome" stroke="none" stroke-width="1" fill="none" fill-rule="evenodd">
        <g id="Productivity-Overview" transform="translate(-1772.000000, -130.000000)">
            <g id="team" transform="translate(1632.000000, 37.000000)">
                <g id="pciture-copy" transform="translate(127.000000, 68.000000)">
                    <g id="AECID" transform="translate(13.000000, 25.000000)">
                        <path d="M23.1447879,15.0243054 C23.1447879,19.2484148 19.7014173,22.67251 15.4539598,22.67251 C11.2063781,22.67251 7.76313171,19.2484148 7.76313171,15.0243054 C7.76313171,10.8003196 11.2063781,7.37597717 15.4539598,7.37597717 C19.7014173,7.37597717 23.1447879,10.8003196 23.1447879,15.0243054" id="Fill-3" fill="#EEB236"></path>
                        <path d="M20.7913023,20.5202322 C19.4072937,21.8518591 17.5233869,22.67251 15.4456344,22.67251 C11.1980526,22.67251 7.75480628,19.2484148 7.75480628,15.0243054 C7.75480628,10.8003196 11.1980526,7.37597717 15.4456344,7.37597717 C17.5307182,7.37597717 19.4208381,8.2026832 20.8062135,9.54258953 L25.7587226,4.49659347 C23.0399124,1.77834947 19.2754538,0.0954033845 15.1157239,0.0954033845 C6.82496823,0.0954033845 0.103865677,6.77936482 0.103865677,15.0243054 C0.103865677,23.2694931 6.82496823,29.9532074 15.1157239,29.9532074 C19.2681224,29.9532074 23.0266166,28.27644 25.7441841,25.5667226 L20.7913023,20.5202322" id="Fill-4" fill="#AC2C31"></path>
                        <path d="M32.3838964,16.4306942 L32.3838964,15.0105887 C31.8306906,15.2268422 31.450579,15.4207288 31.2446801,15.5929902 C31.0386569,15.7652515 30.9356453,15.9844707 30.9356453,16.2502771 C30.9356453,16.4206848 30.987586,16.5668721 31.091716,16.6894569 C31.1955974,16.8121653 31.3219699,16.8729634 31.4705849,16.8729634 C31.7822291,16.8729634 32.0866663,16.7255403 32.3838964,16.4306942 L32.3838964,16.4306942 Z M34.8900976,16.426122 L34.8900976,17.4378174 C34.3486965,17.789878 33.8414669,17.9655994 33.3677875,17.9655994 C32.8575757,17.9655994 32.5551267,17.7474923 32.4606891,17.3114018 C31.8903354,17.7474923 31.3183663,17.9655994 30.7445333,17.9655994 C30.3395698,17.9655994 29.9958665,17.8218835 29.7125535,17.5340811 C29.4293648,17.2465258 29.2877084,16.9125069 29.2877084,16.5315301 C29.2877084,16.0225313 29.4335897,15.6120205 29.7262221,15.2992562 C30.0188546,14.9869862 30.904456,14.5846312 32.3838964,14.0919441 C32.4205531,13.4299614 32.1193467,13.0986612 31.4802772,13.0986612 C30.7859119,13.0986612 30.1463454,13.4299614 29.5624474,14.0919441 L29.5624474,12.5938638 C30.2435168,12.119342 30.9921837,11.8819575 31.8091936,11.8819575 C33.2742197,11.8819575 34.0069813,12.4767163 34.0069813,13.6659866 L34.0069813,16.3387556 C34.0069813,16.6122235 34.0962,16.7488957 34.2756316,16.7488957 C34.4107022,16.7488957 34.6154828,16.6413869 34.8900976,16.426122 L34.8900976,16.426122 Z" id="Fill-5" fill="#1A1918"></path>
                        <path d="M36.780963,14.2656883 L39.0280819,14.2656883 C38.9403543,13.4051232 38.5657102,12.9744699 37.9045224,12.9744699 C37.2357548,12.9744699 36.861235,13.4051232 36.780963,14.2656883 L36.780963,14.2656883 Z M40.3764279,16.02871 L40.3764279,17.1935128 C39.7564944,17.7083196 38.9890643,17.9655994 38.0741374,17.9655994 C37.1662934,17.9655994 36.4407389,17.68966 35.8975982,17.137534 C35.3544574,16.5859024 35.0830735,15.8549658 35.0830735,14.9454656 C35.0830735,14.0524006 35.3384279,13.3186218 35.8496338,12.7441291 C36.3607154,12.1693892 37.0122109,11.8819575 37.8042446,11.8819575 C38.600006,11.8819575 39.2523713,12.1857009 39.7619619,12.7933113 C40.2711796,13.4009217 40.5091376,14.2145289 40.476333,15.234133 L36.7559867,15.234133 C36.7886671,15.760185 36.95443,16.1648878 37.254021,16.4481181 C37.5538605,16.7313483 37.9552206,16.8729634 38.4593436,16.8729634 C39.0690878,16.8729634 39.708033,16.5915868 40.3764279,16.02871 L40.3764279,16.02871 Z" id="Fill-6" fill="#1A1918"></path>
                        <path d="M45.8329358,16.2770925 L45.8329358,17.5801739 C45.1974698,17.8372066 44.6150629,17.9655994 44.0855908,17.9655994 C43.1758828,17.9655994 42.4489615,17.68966 41.9050752,17.137534 C41.3608161,16.5859024 41.0889351,15.8549658 41.0889351,14.9454656 C41.0889351,14.0566021 41.3636741,13.3236883 41.9136491,12.7470948 C42.4633756,12.170625 43.1640781,11.8819575 44.0153838,11.8819575 C44.5631222,11.8819575 45.1441622,12.010721 45.7581312,12.2683715 L45.7581312,13.6449791 C45.3101737,13.3802849 44.869796,13.2476907 44.4367497,13.2476907 C43.9522597,13.2476907 43.5644441,13.4016631 43.2733027,13.7088666 C42.9822857,14.0163172 42.8367771,14.4275695 42.8367771,14.9423762 C42.8367771,15.4615081 42.9784336,15.8801747 43.2623678,16.1978819 C43.5460536,16.5155891 43.918958,16.6742574 44.3813297,16.6742574 C44.7231691,16.6742574 45.2071621,16.5420338 45.8329358,16.2770925" id="Fill-7" fill="#1A1918"></path>
                        <path d="M46.7386674,17.8414081 L48.3616281,17.8414081 L48.3616281,12.0060252 L46.7386674,12.0060252 L46.7386674,17.8414081 Z M46.6387623,10.1189359 C46.6387623,9.83755923 46.7266141,9.59745612 46.9025664,9.3987501 C47.0785186,9.20016765 47.2891395,9.10081464 47.5349259,9.10081464 C47.783943,9.10081464 47.996552,9.20016765 48.1725042,9.3987501 C48.3484565,9.59745612 48.4365569,9.83755923 48.4365569,10.1189359 C48.4365569,10.3963581 48.3484565,10.6353491 48.1725042,10.8359087 C47.996552,11.036839 47.783943,11.1370571 47.5349259,11.1370571 C47.2891395,11.1370571 47.0785186,11.036839 46.9025664,10.8359087 C46.7266141,10.6353491 46.6387623,10.3963581 46.6387623,10.1189359 L46.6387623,10.1189359 Z" id="Fill-8" fill="#1A1918"></path>
                        <path d="M53.1132086,16.2611515 L53.1132086,13.4424423 C52.8223158,13.2135844 52.5237189,13.0986612 52.2182876,13.0986612 C51.815685,13.0986612 51.5023012,13.2611602 51.277639,13.5862818 C51.0528525,13.911527 50.9410184,14.3677599 50.9410184,14.9551043 C50.9410184,15.4967265 51.0521069,15.9313341 51.2749052,16.2584329 C51.4977035,16.5855317 51.794188,16.7488957 52.164483,16.7488957 C52.491287,16.7488957 52.8077774,16.5861495 53.1132086,16.2611515 L53.1132086,16.2611515 Z M54.7362936,9.2250059 L54.7362936,17.8414081 L53.1132086,17.8414081 L53.1132086,17.3723235 C52.7005409,17.7680055 52.2269858,17.9655994 51.6916735,17.9655994 C51.0077461,17.9655994 50.4368954,17.6765612 49.9793698,17.0976198 C49.5215957,16.518802 49.2929572,15.7933026 49.2929572,14.9206273 C49.2929572,14.0278095 49.525075,13.2981086 49.9903047,12.7316482 C50.4552859,12.1651877 51.0509886,11.8819575 51.7781585,11.8819575 C52.2304651,11.8819575 52.6755647,12.0056545 53.1132086,12.2524305 L53.1132086,9.2250059 L54.7362936,9.2250059 L54.7362936,9.2250059 Z" id="Fill-9" fill="#1A1918"></path>
                    </g>
                </g>
            </g>
        </g>
    </g>
</svg>