<?xml version="1.0" encoding="UTF-8" standalone="no"?>
<svg width="64px" height="30px" viewBox="0 0 64 30" version="1.1" xmlns="http://www.w3.org/2000/svg" xmlns:xlink="http://www.w3.org/1999/xlink">
    <!-- Generator: Sketch 3.7.1 (28215) - http://www.bohemiancoding.com/sketch -->
    <title>australian-aid</title>
    <desc>Created with Sketch.</desc>
    <defs></defs>
    <g id="Welcome" stroke="none" stroke-width="1" fill="none" fill-rule="evenodd">
        <g id="Productivity-Overview" transform="translate(-1640.000000, -132.000000)">
            <g id="team" transform="translate(1632.000000, 37.000000)">
                <g id="pciture" transform="translate(0.000000, 68.000000)">
                    <g id="australian-aid" transform="translate(8.750000, 27.500000)">
                        <path d="M62.3259549,9.4082729 L62.3259549,4.81617366 C62.3155382,3.30361641 61.2413194,2.57828244 60.0677083,2.57828244 C59.0655382,2.57828244 58.3936632,2.9254771 57.9236111,3.59221374 L57.8982205,3.59221374 L57.8982205,2.74507634 L55.4748264,2.74507634 L55.4748264,9.4082729 L57.9874132,9.4082729 L57.9874132,5.89045802 C57.9874132,4.82473282 58.5583767,4.60614504 58.9900174,4.60614504 C59.7252604,4.60614504 59.8142361,5.14625 59.8142361,5.91657443 L59.8142361,9.4082729 L62.3259549,9.4082729 L62.3259549,9.4082729 Z M44.8641493,2.02676527 L47.3763021,2.02676527 L47.3763021,0.242509542 L44.8641493,0.242509542 L44.8641493,2.02676527 Z M41.578559,9.4082729 L44.0907118,9.4082729 L44.0907118,0.242729008 L41.578559,0.242729008 L41.578559,9.4082729 Z M52.2760417,6.41695611 C51.9720052,6.57124046 51.6291233,6.66056298 51.2866753,6.73803435 C50.7285156,6.86620229 50.4366319,7.00775763 50.4366319,7.45656489 C50.4366319,7.76491412 50.766059,8.07304389 51.2233073,8.07304389 C51.7942708,8.07304389 52.2380642,7.72584924 52.2760417,7.03321565 L52.2760417,6.41695611 L52.2760417,6.41695611 Z M54.6859809,7.91897901 C54.6859809,8.41936069 54.7111545,8.9840458 54.9906684,9.4082729 L52.4286024,9.4082729 C52.3650174,9.22853053 52.3261719,8.95858779 52.3396267,8.77906489 L52.3140191,8.77906489 C51.780816,9.39532443 51.0075955,9.5744084 50.1955295,9.5744084 C48.9270833,9.5744084 47.8736979,8.95858779 47.8736979,7.55949427 C47.8736979,5.45372137 50.3092448,5.53119275 51.5909288,5.28670802 C51.9331597,5.22328244 52.2760417,5.12057252 52.2760417,4.69656489 C52.2760417,4.24709924 51.8567708,4.08052481 51.4518229,4.08052481 C50.6768663,4.08052481 50.5256076,4.47885496 50.5123698,4.76086832 L48.1786024,4.76086832 C48.2165799,3.82396947 48.6729601,3.27157443 49.3203125,2.96344466 C49.9548611,2.65553435 50.7914497,2.57828244 51.5653212,2.57828244 C54.7111545,2.57828244 54.6859809,3.90056298 54.6859809,5.18443702 L54.6859809,7.91897901 L54.6859809,7.91897901 Z M44.8643663,9.40805344 L47.3765191,9.40805344 L47.3765191,2.74507634 L44.8643663,2.74507634 L44.8643663,9.40805344 Z M38.3845486,6.41695611 C38.0798611,6.57124046 37.7374132,6.66056298 37.3949653,6.73803435 C36.8365885,6.86620229 36.5453559,7.00775763 36.5453559,7.45656489 C36.5453559,7.76491412 36.875434,8.07304389 37.3320312,8.07304389 C37.9025608,8.07304389 38.3470052,7.72584924 38.3845486,7.03321565 L38.3845486,6.41695611 L38.3845486,6.41695611 Z M40.7947049,7.91897901 C40.7947049,8.41936069 40.8205295,8.9840458 41.0996094,9.4082729 L38.5368924,9.4082729 C38.4730903,9.22853053 38.4357639,8.95858779 38.4483507,8.77906489 L38.422309,8.77906489 C37.8897569,9.39532443 37.1161024,9.5744084 36.3038194,9.5744084 C35.0355903,9.5744084 33.9828559,8.95858779 33.9828559,7.55949427 C33.9828559,5.45372137 36.4184028,5.53119275 37.6998698,5.28670802 C38.0418837,5.22328244 38.3845486,5.12057252 38.3845486,4.69656489 C38.3845486,4.24709924 37.9654948,4.08052481 37.5592448,4.08052481 C36.7862413,4.08052481 36.6334635,4.47885496 36.6210937,4.76086832 L34.2873264,4.76086832 C34.3253038,3.82396947 34.781684,3.27157443 35.4296875,2.96344466 C36.0633681,2.65553435 36.9006076,2.57828244 37.6738281,2.57828244 C40.8205295,2.57828244 40.7947049,3.90056298 40.7947049,5.18443702 L40.7947049,7.91897901 L40.7947049,7.91897901 Z M28.9492187,2.74507634 L31.359809,2.74507634 L31.359809,3.81058206 L31.3845486,3.81058206 C31.7907986,3.01458015 32.3233507,2.57828244 33.2367622,2.57828244 C33.4904514,2.57828244 33.7317708,2.6169084 33.9728733,2.68099237 L33.9728733,4.92788168 C33.718967,4.83790076 33.4904514,4.76086832 32.9830729,4.76086832 C31.9934896,4.76086832 31.4607205,5.35101145 31.4607205,6.77600191 L31.4607205,9.4082729 L28.9492187,9.4082729 L28.9492187,2.74507634 L28.9492187,2.74507634 Z M27.1230469,2.74507634 L28.4676649,2.74507634 L28.4676649,4.31162214 L27.1230469,4.31162214 L27.1230469,6.63510496 C27.1230469,7.2513645 27.2630208,7.52108779 27.8967014,7.52108779 C28.0872396,7.52108779 28.2777778,7.50791985 28.4676649,7.48224237 L28.4676649,9.4082729 C27.9600694,9.4082729 27.3895399,9.48508588 26.8563368,9.48508588 C25.7912326,9.48508588 24.6117622,9.31785305 24.6117622,7.49541031 L24.6117622,4.31162214 L23.4945747,4.31162214 L23.4945747,2.74507634 L24.6117622,2.74507634 L24.6117622,0.716774809 L27.1230469,0.716774809 L27.1230469,2.74507634 L27.1230469,2.74507634 Z M20.9459635,4.68317748 C20.9335937,4.46524809 20.8190104,4.2991126 20.6540799,4.18301527 C20.5021701,4.05462786 20.2990451,3.99076336 20.0961372,3.99076336 C19.7404514,3.99076336 19.3348524,4.06757634 19.3348524,4.50431298 C19.3348524,4.69656489 19.4871962,4.78676527 19.6267361,4.85084924 C20.0453559,5.0305916 20.9967448,5.08150763 21.8333333,5.36461832 C22.671658,5.63368321 23.406901,6.13472328 23.406901,7.22568702 C23.406901,9.07402672 21.656684,9.5744084 20.0579427,9.5744084 C18.5104167,9.5744084 16.8103299,8.94629771 16.7725694,7.22568702 L19.1701389,7.22568702 C19.1825087,7.45656489 19.2840712,7.64925573 19.4746094,7.81604962 C19.6013455,7.93192748 19.8420139,8.00830153 20.1467014,8.00830153 C20.4765625,8.00830153 20.9967448,7.88057252 20.9967448,7.49541031 C20.9967448,7.11002863 20.781033,6.99480916 19.6141493,6.78938931 C17.6983507,6.4553626 16.9244792,5.83910305 16.9244792,4.69656489 C16.9244792,3.01458015 18.7126736,2.57828244 20.0327691,2.57828244 C21.453342,2.57828244 23.1662326,2.97639313 23.2296007,4.68317748 L20.9459635,4.68317748 L20.9459635,4.68317748 Z M16.312717,9.4082729 L13.889974,9.4082729 L13.889974,8.56069656 L13.8648003,8.56069656 C13.3951823,9.22853053 12.7230903,9.5744084 11.7207031,9.5744084 C10.5412326,9.5744084 9.46267361,8.84336832 9.46267361,7.31544847 L9.46267361,2.74507634 L11.9746094,2.74507634 L11.9746094,6.23699427 C11.9746094,7.00775763 12.063151,7.54676527 12.7992622,7.54676527 C13.2304687,7.54676527 13.8018663,7.32817748 13.8018663,6.26289122 L13.8018663,2.74507634 L16.312717,2.74507634 L16.312717,9.4082729 L16.312717,9.4082729 Z M3.42599826,0.21485687 L6.15277778,0.21485687 L9.45203993,9.38040076 L6.55924479,9.38040076 L6.17860243,8.07128817 L3.29904514,8.07128817 L2.89301215,9.38040076 L0.0891927083,9.38040076 L3.42599826,0.21485687 L3.42599826,0.21485687 Z M5.62044271,6.10729008 L4.80859375,3.28298664 L4.78298611,3.28298664 L3.9077691,6.10729008 L5.62044271,6.10729008 L5.62044271,6.10729008 Z" id="Fill-1" fill="#20264E"></path>
                        <path d="M3.47526042,12.0820229 L6.20203993,12.0820229 L9.50130208,21.2477863 L6.60850694,21.2477863 L6.22786458,19.9384542 L3.34830729,19.9384542 L2.94227431,21.2477863 L0.138454861,21.2477863 L3.47526042,12.0820229 L3.47526042,12.0820229 Z M5.66970486,17.9744561 L4.8578559,15.1501527 L4.83224826,15.1501527 L3.95703125,17.9744561 L5.66970486,17.9744561 L5.66970486,17.9744561 Z M9.69162326,21.2475668 L12.4824219,21.2475668 L12.4824219,12.0820229 L9.69162326,12.0820229 L9.69162326,21.2475668 Z M13.4863281,12.0820229 L18.0653212,12.0820229 C21.0844184,12.0820229 22.1503906,14.3412023 22.1503906,16.652395 C22.1503906,19.4633111 20.6790365,21.2477863 17.5195313,21.2477863 L13.4863281,21.2477863 L13.4863281,12.0820229 L13.4863281,12.0820229 Z M16.2764757,18.8988454 L17.3680556,18.8988454 C19.1054687,18.8988454 19.359375,17.4736355 19.359375,16.6133302 C19.359375,16.0356966 19.1820747,14.4314027 17.1651476,14.4314027 L16.2764757,14.4314027 L16.2764757,18.8988454 L16.2764757,18.8988454 Z" id="Fill-2" fill="#20264E"></path>
                        <path d="M52.046441,16.64625 C51.5664063,16.0942939 50.2912326,15.0652195 49.9945747,14.9541698 C49.8888889,14.9142271 49.6113281,14.8802099 49.2322049,14.8358779 C49.0894097,14.8194179 48.9444444,14.8027385 48.8313802,14.786937 L48.5709635,14.7500668 L48.5054253,14.4908779 C48.4592014,14.3060878 48.4301215,14.0199046 48.405599,13.7668607 C48.3569878,13.2579198 48.3185764,13.1157061 48.2267795,13.1071469 L48.218967,13.1071469 C48.1642795,13.1071469 48.0859375,13.1593798 47.9982639,13.2550668 C47.8151042,13.4508302 47.609809,13.8100954 47.6295573,14.1752863 C47.6365017,14.3038931 47.7406684,14.496145 47.8426649,14.6826908 L47.8502604,14.6958588 C47.8815104,14.7535782 47.9210069,14.8275382 47.9500868,14.8856966 L48.0386285,15.0680725 C48.0386285,15.0680725 47.8066406,16.0187977 46.812934,15.9663454 C46.2211372,15.9347424 45.2595486,15.3891508 44.0915799,14.4641031 C42.2699653,13.0215553 40.5568576,11.7019084 38.3001302,11.7019084 C36.2150608,11.7019084 34.2894965,13.3489981 32.3702257,15.5052481 C31.6378038,16.3291221 29.8847656,18.3826622 27.6759983,18.578645 C25.468099,18.7750668 24.8313802,17.5653721 23.7411024,16.6701718 C23.4194878,16.4061546 23.1074219,16.3934256 23.2534722,16.6541508 C23.6189236,17.3050859 24.1803385,18.1122805 24.5327691,18.5250954 C25.2202691,19.3325095 26.562066,20.1083206 27.9611545,20.1491412 C31.2671441,20.249437 34.2371962,17.5146756 34.3207465,17.677958 C34.5557726,18.1359828 34.7152778,18.578645 35.2411024,19.0000191 C35.7697483,19.4231489 37.7829861,19.9520611 38.0737847,20.4838263 C38.6015625,21.4518893 38.5759549,22.3672805 38.7406684,23.7501336 C38.813151,24.360687 39.0221354,24.9991126 39.2087674,25.4771088 C39.4168837,26.0108492 39.5351563,26.1859828 39.6321615,26.201126 C41.4570313,26.482042 44.2539063,27.548645 45.6688368,28.0575859 C46.4327257,28.3321374 46.983724,28.5307538 47.1833767,28.542166 L47.1950955,28.542605 L47.2092014,28.542605 C47.2586806,28.5412882 47.2890625,28.526584 47.3068576,28.4952004 C47.3363715,28.4420897 47.3270399,28.3806393 47.3135851,28.3382824 C47.2107205,28.0187405 46.5106337,27.4935592 46.1998698,27.3517844 C45.1019965,26.8527195 43.9023438,26.4816031 42.9394531,26.1829103 C42.0848524,25.9180153 40.8072917,25.5025668 40.5375434,25.1858779 C40.3146701,24.9240553 40.0455729,24.4767844 40.1453993,23.4852385 C40.2124566,22.814771 40.3151042,22.2213359 41.0664063,21.0136164 C41.5687934,20.2044466 41.749783,19.5175191 41.7319878,18.9392271 C42.6063368,19.2374809 43.5839844,19.3241698 43.5839844,19.3241698 C43.7925347,19.8741508 43.6933594,21.2322042 43.2777778,21.6417271 L43.2222222,21.696813 L43.1503906,21.7253435 C43.1167535,21.7391698 43.0583767,21.7595802 43.0099826,21.7762595 C42.406684,21.9834351 42.4793837,22.204876 42.5221354,22.3376527 C42.5536024,22.4309256 42.6853299,22.4840363 42.8845486,22.4840363 C43.1616753,22.4840363 43.7065972,22.3595992 43.9986979,21.8938931 C44.15625,21.6417271 44.3632813,21.0965744 44.5633681,20.5696374 C44.766276,20.0339218 44.8480903,19.8879771 45.0045573,19.6156202 L45.1234809,19.4071279 C45.1234809,19.4071279 46.0915799,19.4279771 47.0672743,18.8812882 C47.5707465,18.5997137 47.9739583,18.2119179 48.3246528,17.8972042 C48.5555556,17.6893702 48.7536892,17.5098473 48.922309,17.4047233 C49.15625,17.2589981 49.3949653,17.1918416 49.6755642,17.1918416 C49.9880642,17.1918416 50.3263889,17.2747996 50.7172309,17.3709256 L50.7382813,17.3759733 C50.9318576,17.4240363 51.1527778,17.4782443 51.3851997,17.524771 C51.6675347,17.5811737 51.9772135,17.3933111 52.0991753,17.1183206 C52.1764323,16.9420897 52.1582031,16.7746374 52.046441,16.64625" id="Fill-3" fill="#D72331"></path>
                    </g>
                </g>
            </g>
        </g>
    </g>
</svg>