<?xml version="1.0" encoding="UTF-8" standalone="no"?>
<svg width="64px" height="64px" viewBox="0 0 64 64" version="1.1" xmlns="http://www.w3.org/2000/svg" xmlns:xlink="http://www.w3.org/1999/xlink">
    <!-- Generator: Sketch 39.1 (31720) - http://www.bohemiancoding.com/sketch -->
    <title>Group 22</title>
    <desc>Created with Sketch.</desc>
    <defs></defs>
    <g id="Annual-Level" stroke="none" stroke-width="1" fill="none" fill-rule="evenodd">
        <g id="AnnualOverview02" transform="translate(-1354.000000, -451.000000)">
            <g id="Group-7-Copy" transform="translate(1354.000000, 196.000000)">
                <g id="Group-4-Copy-4" transform="translate(0.000000, 255.000000)">
                    <g id="Group-22">
                        <rect id="Rectangle-37" fill="#828E9C" x="0" y="0" width="64" height="64" rx="8"></rect>
                        <path d="M48.0453333,15.024 C46.016,13.0053333 43.544,12 40.6213333,12 L37.8826667,12 C37.4933333,14.4666667 34.848,16.3866667 31.608,16.3866667 C28.368,16.3866667 25.7226667,14.4666667 25.3306667,12 L22.608,12 C19.696,12 17.192,13.0053333 15.1173333,15.024 C13.04,17.0453333 12,19.512 12,22.424 L12,29.7733333 L19.0746667,29.7733333 L19.0746667,24.96 L20.9306667,24.96 L20.9306667,52 L42.1413333,52 L42.1413333,24.96 L43.9946667,24.96 L43.9946667,29.5893333 L51.064,29.5893333 L51.064,22.424 C51.064,19.512 50.0533333,17.0453333 48.0453333,15.024" id="Fill-458" fill="#FFFFFF"></path>
                    </g>
                </g>
            </g>
        </g>
    </g>
</svg>