<?xml version="1.0" standalone="no"?>
<!DOCTYPE svg PUBLIC "-//W3C//DTD SVG 20010904//EN"
 "http://www.w3.org/TR/2001/REC-SVG-20010904/DTD/svg10.dtd">
<svg version="1.0" xmlns="http://www.w3.org/2000/svg"
 width="60px" height="60px" viewBox="0 0 85 90"
 preserveAspectRatio="xMidYMid meet">
<metadata>
Created by potrace 1.10, written by Peter Selinger 2001-2011
</metadata>
<g transform="translate(0.000000,100.000000) scale(0.100000,-0.100000)"
fill="#1b94d6" stroke="none">
<path d="M312 710 c-124 -82 -181 -124 -176 -133 20 -34 25 -37 50 -20 l24 15
0 -201 0 -201 290 0 290 0 0 201 0 201 24 -15 c25 -17 30 -14 50 21 5 8 -49
49 -169 128 -98 63 -182 117 -189 120 -6 2 -93 -50 -194 -116z m315 -32 l108
-73 -118 -3 c-64 -1 -170 -1 -235 0 l-117 3 115 77 c63 43 120 76 127 73 7 -2
61 -37 120 -77z"/>
</g>
</svg>
